FPGA/Time/simulation/qsim/Time.msim.vcd
$comment
	File created using the following command:
		vcd file Time.msim.vcd -direction
$end
$date
	Mon Dec 26 23:01:48 2022
$end
$version
	ModelSim Version 10.1d
$end
$timescale
	1ps
$end
$scope module Time_vlg_vec_tst $end
$var reg 1 ! CLK $end
$var reg 1 " nRst $end
$var reg 1 # nSTART $end
$var reg 1 $ nSTOP $end
$var wire 1 % T1 $end
$var wire 1 & T2 $end
$var wire 1 ' T3 $end
$var wire 1 ( sampler $end
$scope module i1 $end
$var wire 1 ) gnd $end
$var wire 1 * vcc $end
$var wire 1 + unknown $end
$var tri1 1 , devclrn $end
$var tri1 1 - devpor $end
$var tri1 1 . devoe $end
$var wire 1 / nSTART~input_o $end
$var wire 1 0 T1~output_o $end
$var wire 1 1 T2~output_o $end
$var wire 1 2 T3~output_o $end
$var wire 1 3 CLK~input_o $end
$var wire 1 4 CLK~inputclkctrl_outclk $end
$var wire 1 5 nSTOP~input_o $end
$var wire 1 6 T2~0_combout $end
$var wire 1 7 nRst~input_o $end
$var wire 1 8 nRst~inputclkctrl_outclk $end
$var wire 1 9 T2~reg0_q $end
$var wire 1 : T3~0_combout $end
$var wire 1 ; T3~reg0_q $end
$var wire 1 < T1~0_combout $end
$var wire 1 = T1~reg0_q $end
$upscope $end
$upscope $end
$enddefinitions $end
#0
$dumpvars
0!
1"
1#
1$
x%
x&
x'
x(
0)
1*
x+
1,
1-
1.
1/
x0
x1
x2
03
x4
15
x6
17
x8
09
x:
0;
x<
0=
$end
#208
04
#222
18
#714
0:
#924
06
#3574
02
0'
#3584
01
0&
#3781
00
0%
#3871
1<
#20000
1!
0(
#20766
13
#20988
14
#22891
1=
#23373
0<
#23716
16
#26767
10
1%
#40000
0#
0!
0/
1(
#40812
03
#41020
04
#60000
1!
0(
#60766
13
#60988
14
#62891
19
0=
#63353
1<
#63475
1:
#63581
0<
#63815
06
#66502
11
1&
#66672
00
0%
#80000
0!
1(
#80812
03
#81020
04
#100000
1!
0(
#100766
13
#100988
14
#102891
09
1;
#103605
0:
#103630
1<
#106475
01
0&
#106495
12
1'
#120000
0!
1(
#120812
03
#121020
04
#140000
1!
0(
#140766
13
#140988
14
#142891
0;
1=
#143373
0<
#143716
16
#146465
02
0'
#146767
10
1%
#160000
0!
1(
#160812
03
#161020
04
#180000
1!
0(
#180766
13
#180988
14
#182891
19
0=
#183353
1<
#183475
1:
#183581
0<
#183815
06
#186502
11
1&
#186672
00
0%
#200000
0!
1(
#200812
03
#201020
04
#210000
0"
0(
#210812
07
#211020
08
#212924
09
#213638
0:
#213663
1<
#216508
01
0&
#220000
1!
1"
1(
#220766
17
13
#220988
18
14
#240000
0!
0(
#240812
03
#241020
04
#260000
1!
1(
#260766
13
#260988
14
#262891
1=
#263373
0<
#263716
16
#266767
10
1%
#280000
0!
0(
#280812
03
#281020
04
#300000
1!
1(
#300766
13
#300988
14
#302891
19
0=
#303353
1<
#303475
1:
#303581
0<
#303815
06
#306502
11
1&
#306672
00
0%
#320000
0!
0(
#320812
03
#321020
04
#340000
1!
1(
#340766
13
#340988
14
#342891
09
1;
#343605
0:
#343630
1<
#346475
01
0&
#346495
12
1'
#360000
0!
0(
#360812
03
#361020
04
#380000
1!
1(
#380766
13
#380988
14
#382891
0;
1=
#383373
0<
#383716
16
#386465
02
0'
#386767
10
1%
#400000
0!
0(
#400812
03
#401020
04
#420000
1!
1(
#420766
13
#420988
14
#422891
19
0=
#423353
1<
#423475
1:
#423581
0<
#423815
06
#426502
11
1&
#426672
00
0%
#440000
0!
0(
#440812
03
#441020
04
#460000
1!
1(
#460766
13
#460988
14
#462891
09
1;
#463605
0:
#463630
1<
#466475
01
0&
#466495
12
1'
#480000
0!
0(
#480812
03
#481020
04
#500000
1!
1(
#500766
13
#500988
14
#502891
0;
1=
#503373
0<
#503716
16
#506465
02
0'
#506767
10
1%
#520000
0!
0(
#520812
03
#521020
04
#540000
1!
1(
#540766
13
#540988
14
#542891
19
0=
#543353
1<
#543475
1:
#543581
0<
#543815
06
#546502
11
1&
#546672
00
0%
#560000
0!
0(
#560812
03
#561020
04
#580000
1!
1(
#580766
13
#580988
14
#582891
09
1;
#583605
0:
#583630
1<
#586475
01
0&
#586495
12
1'
#600000
0$
0!
0(
#600811
05
#600812
03
#601020
04
#604917
0<
#620000
1!
1(
#620766
13
#620988
14
#622891
0;
#626465
02
0'
#640000
0!
0(
#640812
03
#641020
04
#660000
1!
1(
#660766
13
#660988
14
#680000
0!
0(
#680812
03
#681020
04
#700000
1!
1(
#700766
13
#700988
14
#720000
0!
0(
#720812
03
#721020
04
#740000
1!
1(
#740766
13
#740988
14
#760000
0!
0(
#760812
03
#761020
04
#780000
1!
1(
#780766
13
#780988
14
#800000
0!
0(
#800812
03
#801020
04
#820000
1!
1(
#820766
13
#820988
14
#840000
0!
0(
#840812
03
#841020
04
#860000
1$
1!
1(
#860764
15
#860766
13
#860988
14
#864635
1<
#880000
0!
0(
#880812
03
#881020
04
#900000
1!
1(
#900766
13
#900988
14
#902891
1=
#903373
0<
#903716
16
#906767
10
1%
#920000
0!
0(
#920812
03
#921020
04
#940000
1!
1(
#940766
13
#940988
14
#942891
19
0=
#943353
1<
#943475
1:
#943581
0<
#943815
06
#946502
11
1&
#946672
00
0%
#960000
0!
0(
#960812
03
#961020
04
#980000
1!
1(
#980766
13
#980988
14
#982891
09
1;
#983605
0:
#983630
1<
#986475
01
0&
#986495
12
1'
