FPGA/mux8/simulation/qsim/mux8.msim.vcd
$comment
	File created using the following command:
		vcd file mux8.msim.vcd -direction
$end
$date
	Wed Nov 16 15:23:36 2022
$end
$version
	ModelSim Version 10.1d
$end
$timescale
	1ps
$end
$scope module mux8_vlg_vec_tst $end
$var reg 1 ! A $end
$var reg 1 " B $end
$var reg 1 # C $end
$var reg 1 $ D $end
$var reg 1 % E $end
$var reg 1 & F $end
$var reg 1 ' G $end
$var reg 1 ( H $end
$var reg 3 ) select [2:0] $end
$var wire 1 * andLogic $end
$var wire 1 + muxout $end
$var wire 1 , nandLogic $end
$var wire 1 - norLogic $end
$var wire 1 . notLogic $end
$var wire 1 / nxorLogic $end
$var wire 1 0 orLogic $end
$var wire 1 1 xorLogic $end
$var wire 1 2 sampler $end
$scope module i1 $end
$var wire 1 3 gnd $end
$var wire 1 4 vcc $end
$var wire 1 5 unknown $end
$var tri1 1 6 devclrn $end
$var tri1 1 7 devpor $end
$var tri1 1 8 devoe $end
$var wire 1 9 andLogic~output_o $end
$var wire 1 : orLogic~output_o $end
$var wire 1 ; notLogic~output_o $end
$var wire 1 < nandLogic~output_o $end
$var wire 1 = norLogic~output_o $end
$var wire 1 > nxorLogic~output_o $end
$var wire 1 ? xorLogic~output_o $end
$var wire 1 @ muxout~output_o $end
$var wire 1 A A~input_o $end
$var wire 1 B B~input_o $end
$var wire 1 C andLogic~0_combout $end
$var wire 1 D orLogic~0_combout $end
$var wire 1 E xorLogic~0_combout $end
$var wire 1 F C~input_o $end
$var wire 1 G D~input_o $end
$var wire 1 H select[0]~input_o $end
$var wire 1 I select[1]~input_o $end
$var wire 1 J mux|Mux0~2_combout $end
$var wire 1 K mux|Mux0~3_combout $end
$var wire 1 L select[2]~input_o $end
$var wire 1 M E~input_o $end
$var wire 1 N G~input_o $end
$var wire 1 O mux|Mux0~0_combout $end
$var wire 1 P H~input_o $end
$var wire 1 Q F~input_o $end
$var wire 1 R mux|Mux0~1_combout $end
$var wire 1 S mux|Mux0~4_combout $end
$upscope $end
$upscope $end
$enddefinitions $end
#0
$dumpvars
0!
0"
1#
0$
0%
0&
0'
0(
b100 )
0*
0+
1,
1-
1.
1/
00
01
x2
03
14
x5
16
17
18
09
0:
1;
1<
1=
1>
0?
0@
0A
0B
0C
0D
0E
1F
0G
0H
0I
0J
0K
1L
0M
0N
0O
0P
0Q
0R
0S
$end
#25000
1"
1'
1B
1N
02
1E
1D
1?
1:
0>
0=
11
10
0/
0-
#50000
1!
0"
0'
1A
0B
0N
12
1J
0;
0.
1K
#75000
1&
1"
1'
1Q
1B
1N
02
0E
1C
0?
19
1>
0<
01
1*
1/
0,
#100000
1%
0!
0"
0'
1M
0A
0B
0N
12
1O
0J
1;
1.
0D
0C
1R
0K
0:
09
1=
1<
00
0*
1-
1,
1S
1@
1+
#125000
1"
1'
1B
1N
02
1E
1D
1?
1:
0>
0=
11
10
0/
0-
#150000
0&
1!
0"
0'
0Q
1A
0B
0N
12
1J
0;
0.
1K
#175000
1"
1'
1B
1N
02
0E
1C
0?
19
1>
0<
01
1*
1/
0,
#200000
b101 )
0%
0!
0"
0'
1H
0M
0A
0B
0N
12
0R
0O
0J
1;
1.
0D
0C
0K
0:
09
1=
1<
00
0*
1-
1,
0S
0@
0+
#225000
1&
1"
1'
1Q
1B
1N
02
1R
1J
1E
1D
1K
1?
1:
0>
0=
11
10
0/
0-
1S
1@
1+
#250000
1!
0"
0'
1A
0B
0N
12
0J
0;
0.
0K
#275000
1"
1'
1B
1N
02
1J
0E
1C
1K
0?
19
1>
0<
01
1*
1/
0,
#300000
1%
0&
0!
0"
0'
1M
0Q
0A
0B
0N
12
0R
0J
1;
1.
0D
0C
0K
0:
09
1=
1<
00
0*
1-
1,
0S
0@
0+
#325000
1"
1'
1B
1N
02
1J
1E
1D
1K
1?
1:
0>
0=
11
10
0/
0-
#350000
1!
0"
0'
1A
0B
0N
12
0J
0;
0.
0K
#375000
1&
1"
1'
1Q
1B
1N
02
1R
1J
0E
1C
1K
0?
19
1>
0<
01
1*
1/
0,
1S
1@
1+
#400000
b111 )
b110 )
0%
0!
0"
0'
0H
1I
0M
0A
0B
0N
12
0R
0J
0K
1;
1.
0D
0C
1K
0:
09
1=
1<
00
0*
1-
1,
0S
0@
0+
#425000
1"
1'
1B
1N
02
1O
1E
1D
1R
1?
1:
0>
0=
11
10
0/
0-
1S
1@
1+
#450000
0&
1!
0"
0'
0Q
1A
0B
0N
12
0O
0;
0.
0R
0S
0@
0+
#475000
1"
1'
1B
1N
02
1O
0E
1C
1R
0?
19
1>
0<
01
1*
1/
0,
1S
1@
1+
#500000
1%
0!
0"
0'
1M
0A
0B
0N
12
0O
1;
1.
0D
0C
0R
0:
09
1=
1<
00
0*
1-
1,
0S
0@
0+
#525000
1&
1"
1'
1Q
1B
1N
02
1O
1E
1D
1R
1?
1:
0>
0=
11
10
0/
0-
1S
1@
1+
#550000
1!
0"
0'
1A
0B
0N
12
0O
0;
0.
0R
0S
0@
0+
#575000
1"
1'
1B
1N
02
1O
0E
1C
1R
0?
19
1>
0<
01
1*
1/
0,
1S
1@
1+
#600000
b111 )
0%
0&
0!
0"
0'
1H
0M
0Q
0A
0B
0N
12
0R
1J
1;
1.
0D
0C
0K
0:
09
1=
1<
00
0*
1-
1,
0S
0@
0+
#625000
1"
1'
1B
1N
02
1E
1D
1?
1:
0>
0=
11
10
0/
0-
#650000
1!
0"
0'
1A
0B
0N
12
0;
0.
#675000
1&
1"
1'
1Q
1B
1N
02
0E
1C
0?
19
1>
0<
01
1*
1/
0,
#700000
1%
0!
0"
0'
1M
0A
0B
0N
12
1;
1.
0D
0C
0:
09
1=
1<
00
0*
1-
1,
#725000
1"
1'
1B
1N
02
1E
1D
1?
1:
0>
0=
11
10
0/
0-
#750000
0&
1!
0"
0'
0Q
1A
0B
0N
12
0;
0.
#775000
1"
1'
1B
1N
02
0E
1C
0?
19
1>
0<
01
1*
1/
0,
#800000
b11 )
b1 )
b0 )
0%
0!
0"
0'
0H
0I
0L
0M
0A
0B
0N
12
1R
0O
0J
1K
1;
1.
0D
0C
0R
0K
0:
09
1=
1<
00
0*
1-
1,
1S
1@
1+
0S
0@
0+
#825000
1&
1"
1'
1Q
1B
1N
02
1E
1D
1?
1:
0>
0=
11
10
0/
0-
#850000
1!
0"
0'
1A
0B
0N
12
1J
0;
0.
1K
1S
1@
1+
#875000
1"
1'
1B
1N
02
0E
1C
0?
19
1>
0<
01
1*
1/
0,
#900000
1%
0&
0!
0"
0'
1M
0Q
0A
0B
0N
12
1O
0J
1;
1.
0D
0C
1R
0K
0:
09
1=
1<
00
0*
1-
1,
0S
0@
0+
#925000
1"
1'
1B
1N
02
1E
1D
1?
1:
0>
0=
11
10
0/
0-
#950000
1!
0"
0'
1A
0B
0N
12
1J
0;
0.
1K
1S
1@
1+
#975000
1&
1"
1'
1Q
1B
1N
02
0E
1C
0?
19
1>
0<
01
1*
1/
0,
