FPGA/register_led/simulation/qsim/register_led.msim.vcd
$comment
	File created using the following command:
		vcd file register_led.msim.vcd -direction
$end
$date
	Wed Nov 30 14:31:41 2022
$end
$version
	ModelSim Version 10.1d
$end
$timescale
	1ps
$end
$scope module register_led_vlg_vec_tst $end
$var reg 1 ! clk $end
$var reg 8 " inData [7:0] $end
$var reg 1 # nload $end
$var wire 1 $ clk_out $end
$var wire 1 % outData [7] $end
$var wire 1 & outData [6] $end
$var wire 1 ' outData [5] $end
$var wire 1 ( outData [4] $end
$var wire 1 ) outData [3] $end
$var wire 1 * outData [2] $end
$var wire 1 + outData [1] $end
$var wire 1 , outData [0] $end
$var wire 1 - sampler $end
$scope module i1 $end
$var wire 1 . gnd $end
$var wire 1 / vcc $end
$var wire 1 0 unknown $end
$var tri1 1 1 devclrn $end
$var tri1 1 2 devpor $end
$var tri1 1 3 devoe $end
$var wire 1 4 outData[0]~output_o $end
$var wire 1 5 outData[1]~output_o $end
$var wire 1 6 outData[2]~output_o $end
$var wire 1 7 outData[3]~output_o $end
$var wire 1 8 outData[4]~output_o $end
$var wire 1 9 outData[5]~output_o $end
$var wire 1 : outData[6]~output_o $end
$var wire 1 ; outData[7]~output_o $end
$var wire 1 < clk_out~output_o $end
$var wire 1 = clk~input_o $end
$var wire 1 > clk~inputclkctrl_outclk $end
$var wire 1 ? inData[0]~input_o $end
$var wire 1 @ nload~input_o $end
$var wire 1 A outData[0]~1_combout $end
$var wire 1 B inData[7]~input_o $end
$var wire 1 C outData[7]~29_combout $end
$var wire 1 D inData[6]~input_o $end
$var wire 1 E outData[6]~25_combout $end
$var wire 1 F inData[5]~input_o $end
$var wire 1 G outData[5]~21_combout $end
$var wire 1 H inData[4]~input_o $end
$var wire 1 I outData[4]~17_combout $end
$var wire 1 J inData[3]~input_o $end
$var wire 1 K outData[3]~13_combout $end
$var wire 1 L inData[2]~input_o $end
$var wire 1 M outData[2]~9_combout $end
$var wire 1 N inData[1]~input_o $end
$var wire 1 O outData[1]~5_combout $end
$var wire 1 P outData[1]~7_combout $end
$var wire 1 Q outData[1]~reg0_emulated_q $end
$var wire 1 R outData[1]~6_combout $end
$var wire 1 S outData[2]~11_combout $end
$var wire 1 T outData[2]~reg0_emulated_q $end
$var wire 1 U outData[2]~10_combout $end
$var wire 1 V outData[3]~15_combout $end
$var wire 1 W outData[3]~reg0_emulated_q $end
$var wire 1 X outData[3]~14_combout $end
$var wire 1 Y outData[4]~19_combout $end
$var wire 1 Z outData[4]~reg0_emulated_q $end
$var wire 1 [ outData[4]~18_combout $end
$var wire 1 \ outData[5]~23_combout $end
$var wire 1 ] outData[5]~reg0_emulated_q $end
$var wire 1 ^ outData[5]~22_combout $end
$var wire 1 _ outData[6]~27_combout $end
$var wire 1 ` outData[6]~reg0_emulated_q $end
$var wire 1 a outData[6]~26_combout $end
$var wire 1 b outData[7]~31_combout $end
$var wire 1 c outData[7]~reg0_emulated_q $end
$var wire 1 d outData[7]~30_combout $end
$var wire 1 e outData[0]~3_combout $end
$var wire 1 f outData[0]~reg0_emulated_q $end
$var wire 1 g outData[0]~2_combout $end
$upscope $end
$upscope $end
$enddefinitions $end
#0
$dumpvars
0!
b1 "
0#
0$
1,
0+
0*
0)
0(
0'
0&
0%
x-
0.
1/
x0
11
12
13
14
05
06
07
08
09
0:
0;
0<
0=
0>
1?
0@
1A
0B
0C
0D
0E
0F
0G
0H
0I
0J
0K
0L
0M
0N
0O
1P
0Q
0R
0S
0T
0U
0V
0W
0X
0Y
0Z
0[
0\
0]
0^
0_
0`
0a
0b
0c
0d
1e
0f
1g
$end
#100000
1!
0-
1=
1>
1<
1$
#200000
0!
1-
0=
0>
0<
0$
#300000
1!
0-
1=
1>
1<
1$
#400000
0!
1-
0=
0>
0<
0$
#500000
1#
1!
1@
0-
1=
1>
1<
1$
1f
1Q
0g
1R
0P
1S
04
15
0,
1+
#600000
0!
1-
0=
0>
0<
0$
#700000
1!
0-
1=
1>
1<
1$
1T
0Q
1U
0R
1V
0S
16
05
1*
0+
#800000
0!
1-
0=
0>
0<
0$
#900000
1!
0-
1=
1>
1<
1$
1W
0T
1X
0U
1Y
0V
17
06
1)
0*
#1000000
0!
1-
0=
0>
0<
0$
#1100000
1!
0-
1=
1>
1<
1$
1Z
0W
1[
0X
1\
0Y
18
07
1(
0)
#1200000
0!
1-
0=
0>
0<
0$
#1300000
1!
0-
1=
1>
1<
1$
1]
0Z
1^
0[
1_
0\
19
08
1'
0(
#1400000
0!
1-
0=
0>
0<
0$
#1500000
1!
0-
1=
1>
1<
1$
1`
0]
1a
0^
1b
0_
1:
09
1&
0'
#1600000
0!
1-
0=
0>
0<
0$
#1700000
1!
0-
1=
1>
1<
1$
1c
0`
1d
0a
0e
0b
1;
0:
1%
0&
#1800000
0!
1-
0=
0>
0<
0$
#1900000
1!
0-
1=
1>
1<
1$
0f
0c
1g
0d
1P
1e
14
0;
1,
0%
#2000000
0!
1-
0=
0>
0<
0$
#2100000
1!
0-
1=
1>
1<
1$
1f
1Q
0g
1R
0P
1S
04
15
0,
1+
#2200000
0!
1-
0=
0>
0<
0$
#2300000
1!
0-
1=
1>
1<
1$
1T
0Q
1U
0R
1V
0S
16
05
1*
0+
#2400000
0!
1-
0=
0>
0<
0$
#2500000
1!
0-
1=
1>
1<
1$
1W
0T
1X
0U
1Y
0V
17
06
1)
0*
#2560000
b0 "
0?
1-
#2600000
0!
0-
0=
0>
0<
0$
#2700000
1!
1-
1=
1>
1<
1$
1Z
0W
1[
0X
1\
0Y
18
07
1(
0)
#2800000
0!
0-
0=
0>
0<
0$
#2900000
1!
1-
1=
1>
1<
1$
1]
0Z
1^
0[
1_
0\
19
08
1'
0(
#3000000
0!
0-
0=
0>
0<
0$
#3100000
1!
1-
1=
1>
1<
1$
1`
0]
1a
0^
1b
0_
1:
09
1&
0'
#3200000
0!
0-
0=
0>
0<
0$
#3300000
1!
1-
1=
1>
1<
1$
1c
0`
1d
0a
0e
0b
1;
0:
1%
0&
#3400000
0!
0-
0=
0>
0<
0$
#3500000
1!
1-
1=
1>
1<
1$
0f
0c
1g
0d
1P
1e
14
0;
1,
0%
#3600000
0!
0-
0=
0>
0<
0$
#3700000
1!
1-
1=
1>
1<
1$
1f
1Q
0g
1R
0P
1S
04
15
0,
1+
#3800000
0!
0-
0=
0>
0<
0$
#3900000
1!
1-
1=
1>
1<
1$
1T
0Q
1U
0R
1V
0S
16
05
1*
0+
#4000000
0!
0-
0=
0>
0<
0$
#4100000
1!
1-
1=
1>
1<
1$
1W
0T
1X
0U
1Y
0V
17
06
1)
0*
#4200000
0!
0-
0=
0>
0<
0$
#4300000
1!
1-
1=
1>
1<
1$
1Z
0W
1[
0X
1\
0Y
18
07
1(
0)
#4400000
0!
0-
0=
0>
0<
0$
#4500000
1!
1-
1=
1>
1<
1$
1]
0Z
1^
0[
1_
0\
19
08
1'
0(
#4600000
0!
0-
0=
0>
0<
0$
#4700000
1!
1-
1=
1>
1<
1$
1`
0]
1a
0^
1b
0_
1:
09
1&
0'
#4800000
0!
0-
0=
0>
0<
0$
#4900000
1!
1-
1=
1>
1<
1$
1c
0`
1d
0a
0e
0b
1;
0:
1%
0&
#5000000
0!
0-
0=
0>
0<
0$
#5100000
1!
1-
1=
1>
1<
1$
0f
0c
1g
0d
1P
1e
14
0;
1,
0%
#5200000
0!
0-
0=
0>
0<
0$
#5300000
1!
1-
1=
1>
1<
1$
1f
1Q
0g
1R
0P
1S
04
15
0,
1+
#5400000
0!
0-
0=
0>
0<
0$
#5500000
1!
1-
1=
1>
1<
1$
1T
0Q
1U
0R
1V
0S
16
05
1*
0+
#5600000
0!
0-
0=
0>
0<
0$
#5700000
1!
1-
1=
1>
1<
1$
1W
0T
1X
0U
1Y
0V
17
06
1)
0*
#5800000
0!
0-
0=
0>
0<
0$
#5900000
1!
1-
1=
1>
1<
1$
1Z
0W
1[
0X
1\
0Y
18
07
1(
0)
#6000000
0!
0-
0=
0>
0<
0$
#6100000
1!
1-
1=
1>
1<
1$
1]
0Z
1^
0[
1_
0\
19
08
1'
0(
#6200000
0!
0-
0=
0>
0<
0$
#6300000
1!
1-
1=
1>
1<
1$
1`
0]
1a
0^
1b
0_
1:
09
1&
0'
#6400000
0!
0-
0=
0>
0<
0$
#6500000
1!
1-
1=
1>
1<
1$
1c
0`
1d
0a
0e
0b
1;
0:
1%
0&
#6600000
0!
0-
0=
0>
0<
0$
#6700000
1!
1-
1=
1>
1<
1$
0f
0c
1g
0d
1P
1e
14
0;
1,
0%
#6800000
0!
0-
0=
0>
0<
0$
#6900000
1!
1-
1=
1>
1<
1$
1f
1Q
0g
1R
0P
1S
04
15
0,
1+
#7000000
0!
0-
0=
0>
0<
0$
#7100000
1!
1-
1=
1>
1<
1$
1T
0Q
1U
0R
1V
0S
16
05
1*
0+
#7200000
0!
0-
0=
0>
0<
0$
#7300000
1!
1-
1=
1>
1<
1$
1W
0T
1X
0U
1Y
0V
17
06
1)
0*
#7400000
0!
0-
0=
0>
0<
0$
#7500000
1!
1-
1=
1>
1<
1$
1Z
0W
1[
0X
1\
0Y
18
07
1(
0)
#7600000
0!
0-
0=
0>
0<
0$
#7700000
1!
1-
1=
1>
1<
1$
1]
0Z
1^
0[
1_
0\
19
08
1'
0(
#7800000
0!
0-
0=
0>
0<
0$
#7900000
1!
1-
1=
1>
1<
1$
1`
0]
1a
0^
1b
0_
1:
09
1&
0'
#8000000
0!
0-
0=
0>
0<
0$
#8100000
1!
1-
1=
1>
1<
1$
1c
0`
1d
0a
0e
0b
1;
0:
1%
0&
#8200000
0!
0-
0=
0>
0<
0$
#8300000
1!
1-
1=
1>
1<
1$
0f
0c
1g
0d
1P
1e
14
0;
1,
0%
#8400000
0!
0-
0=
0>
0<
0$
#8500000
1!
1-
1=
1>
1<
1$
1f
1Q
0g
1R
0P
1S
04
15
0,
1+
#8600000
0!
0-
0=
0>
0<
0$
#8700000
1!
1-
1=
1>
1<
1$
1T
0Q
1U
0R
1V
0S
16
05
1*
0+
#8800000
0!
0-
0=
0>
0<
0$
#8900000
1!
1-
1=
1>
1<
1$
1W
0T
1X
0U
1Y
0V
17
06
1)
0*
#9000000
0!
0-
0=
0>
0<
0$
#9100000
1!
1-
1=
1>
1<
1$
1Z
0W
1[
0X
1\
0Y
18
07
1(
0)
#9200000
0!
0-
0=
0>
0<
0$
#9300000
1!
1-
1=
1>
1<
1$
1]
0Z
1^
0[
1_
0\
19
08
1'
0(
#9400000
0!
0-
0=
0>
0<
0$
#9500000
1!
1-
1=
1>
1<
1$
1`
0]
1a
0^
1b
0_
1:
09
1&
0'
#9600000
0!
0-
0=
0>
0<
0$
#9700000
1!
1-
1=
1>
1<
1$
1c
0`
1d
0a
0e
0b
1;
0:
1%
0&
#9800000
0!
0-
0=
0>
0<
0$
#9900000
1!
1-
1=
1>
1<
1$
0f
0c
1g
0d
1P
1e
14
0;
1,
0%
