FPGA/StaticLED/simulation/qsim/StaticLED.msim.vcd
$comment
	File created using the following command:
		vcd file StaticLED.msim.vcd -direction
$end
$date
	Tue Dec 06 11:43:51 2022
$end
$version
	ModelSim Version 10.1d
$end
$timescale
	1ps
$end
$scope module StaticLED_vlg_vec_tst $end
$var reg 1 ! clk $end
$var reg 1 " nRst $end
$var wire 1 # counter [3] $end
$var wire 1 $ counter [2] $end
$var wire 1 % counter [1] $end
$var wire 1 & counter [0] $end
$var wire 1 ' digOut [7] $end
$var wire 1 ( digOut [6] $end
$var wire 1 ) digOut [5] $end
$var wire 1 * digOut [4] $end
$var wire 1 + digOut [3] $end
$var wire 1 , digOut [2] $end
$var wire 1 - digOut [1] $end
$var wire 1 . digOut [0] $end
$var wire 1 / segOut [7] $end
$var wire 1 0 segOut [6] $end
$var wire 1 1 segOut [5] $end
$var wire 1 2 segOut [4] $end
$var wire 1 3 segOut [3] $end
$var wire 1 4 segOut [2] $end
$var wire 1 5 segOut [1] $end
$var wire 1 6 segOut [0] $end
$var wire 1 7 sampler $end
$scope module i1 $end
$var wire 1 8 gnd $end
$var wire 1 9 vcc $end
$var wire 1 : unknown $end
$var tri1 1 ; devclrn $end
$var tri1 1 < devpor $end
$var tri1 1 = devoe $end
$var wire 1 > segOut[0]~output_o $end
$var wire 1 ? segOut[1]~output_o $end
$var wire 1 @ segOut[2]~output_o $end
$var wire 1 A segOut[3]~output_o $end
$var wire 1 B segOut[4]~output_o $end
$var wire 1 C segOut[5]~output_o $end
$var wire 1 D segOut[6]~output_o $end
$var wire 1 E segOut[7]~output_o $end
$var wire 1 F digOut[0]~output_o $end
$var wire 1 G digOut[1]~output_o $end
$var wire 1 H digOut[2]~output_o $end
$var wire 1 I digOut[3]~output_o $end
$var wire 1 J digOut[4]~output_o $end
$var wire 1 K digOut[5]~output_o $end
$var wire 1 L digOut[6]~output_o $end
$var wire 1 M digOut[7]~output_o $end
$var wire 1 N counter[0]~output_o $end
$var wire 1 O counter[1]~output_o $end
$var wire 1 P counter[2]~output_o $end
$var wire 1 Q counter[3]~output_o $end
$var wire 1 R clk~input_o $end
$var wire 1 S clk~inputclkctrl_outclk $end
$var wire 1 T counter[0]~2_combout $end
$var wire 1 U nRst~input_o $end
$var wire 1 V nRst~inputclkctrl_outclk $end
$var wire 1 W counter[0]~reg0_q $end
$var wire 1 X coder|segData~1_combout $end
$var wire 1 Y counter[1]~reg0_q $end
$var wire 1 Z counter[2]~0_combout $end
$var wire 1 [ counter[2]~reg0_q $end
$var wire 1 \ counter[3]~1_combout $end
$var wire 1 ] counter[3]~reg0_q $end
$var wire 1 ^ coder|Mux2~0_combout $end
$var wire 1 _ coder|segData~0_combout $end
$var wire 1 ` coder|Decoder0~0_combout $end
$var wire 1 a coder|WideOr1~0_combout $end
$var wire 1 b coder|WideOr0~0_combout $end
$var wire 1 c coder|Mux1~0_combout $end
$var wire 1 d coder|Mux0~0_combout $end
$upscope $end
$upscope $end
$enddefinitions $end
#0
$dumpvars
0!
1"
x&
x%
x$
x#
0.
1-
1,
1+
1*
1)
1(
1'
x6
x5
x4
x3
x2
x1
x0
0/
x7
08
19
x:
1;
1<
1=
x>
x?
x@
xA
xB
xC
xD
0E
0F
1G
1H
1I
1J
1K
1L
1M
xN
xO
xP
xQ
0R
xS
1T
1U
xV
0W
xX
0Y
xZ
0[
x\
0]
x^
x_
x`
xa
xb
xc
xd
$end
#208
0S
#222
1V
#573
0\
#600
0X
0Z
#914
0d
#974
1_
#1154
0`
#1164
0c
#1165
0a
0^
#1183
0b
#3406
0O
0%
#3516
0Q
0#
#3920
0N
0&
#4311
0P
0$
#4562
1>
16
#4657
0D
00
#4760
1B
12
#4895
1@
14
#5043
1?
15
#5290
1A
13
#6638
1C
11
#50000
1!
07
#50749
1R
#50971
1S
#52843
1W
#53325
0T
#53384
1X
#53967
1c
1b
#53968
1a
1^
#56926
1N
1&
#57528
0>
06
#57733
0B
02
#58372
0A
03
#59974
0C
01
#100000
0!
17
#100858
0R
#101066
0S
#150000
1!
07
#150749
1R
#150971
1S
#152843
0W
1Y
#153305
1T
#153972
1d
#153992
0a
0^
#154026
0b
#154036
1`
#156350
1O
1%
#156763
0N
0&
#157389
1>
16
#157603
1B
12
#157898
1D
10
#157962
0@
04
#158117
1A
13
#200000
0!
17
#200858
0R
#201066
0S
#250000
1!
07
#250749
1R
#250971
1S
#252843
1W
#253325
0T
#253362
0X
#253384
1Z
#253967
1b
#253988
0`
#256926
1N
1&
#257729
1@
14
#257733
0B
02
#300000
0!
17
#300858
0R
#301066
0S
#350000
1!
07
#350749
1R
#350971
1S
#352843
0W
0Y
1[
#353305
1T
#353999
0c
#354026
1a
1^
#356249
0O
0%
#356763
0N
0&
#357313
1P
1$
#357586
0>
06
#358430
0A
03
#359473
1C
11
#400000
0"
0!
17
#400858
0R
0U
#401066
0S
0V
#402939
0[
#403421
0Z
#403905
0b
0d
#403907
0^
#403908
0a
#407250
0P
0$
#407304
1>
16
#407482
1B
12
#407648
0D
00
#408033
1A
13
#420000
1"
07
#420749
1U
#420971
1V
#450000
1!
17
#450749
1R
#450971
1S
#452843
1W
#453325
0T
#453384
1X
#453967
1c
1b
#453968
1a
1^
#456926
1N
1&
#457528
0>
06
#457733
0B
02
#458372
0A
03
#459974
0C
01
#500000
0!
07
#500858
0R
#501066
0S
#550000
1!
17
#550749
1R
#550971
1S
#552843
0W
1Y
#553305
1T
#553972
1d
#553992
0a
0^
#554026
0b
#554036
1`
#556350
1O
1%
#556763
0N
0&
#557389
1>
16
#557603
1B
12
#557898
1D
10
#557962
0@
04
#558117
1A
13
#600000
0!
07
#600858
0R
#601066
0S
#650000
1!
17
#650749
1R
#650971
1S
#652843
1W
#653325
0T
#653362
0X
#653384
1Z
#653967
1b
#653988
0`
#656926
1N
1&
#657729
1@
14
#657733
0B
02
#700000
0!
07
#700858
0R
#701066
0S
#750000
1!
17
#750749
1R
#750971
1S
#752843
0W
0Y
1[
#753305
1T
#753999
0c
#754026
1a
1^
#756249
0O
0%
#756763
0N
0&
#757313
1P
1$
#757586
0>
06
#758430
0A
03
#759473
1C
11
#800000
0!
07
#800858
0R
#801066
0S
#850000
1!
17
#850749
1R
#850971
1S
#852843
1W
#853325
0T
#853384
1X
#853945
0_
#853950
0a
0^
#856926
1N
1&
#857347
1>
16
#857779
0?
05
#858075
1A
13
#900000
0!
07
#900858
0R
#901066
0S
#950000
1!
17
#950749
1R
#950971
1S
#952843
0W
1Y
#953305
1T
#954026
0b
#956350
1O
1%
#956763
0N
0&
#957603
1B
12
#1000000
0!
07
#1000858
0R
#1001066
0S
#1050000
1!
17
#1050749
1R
#1050971
1S
#1052843
1W
#1053325
0T
#1053362
0X
0Z
#1053680
1\
#1053935
1_
#1053967
1c
1b
#1053968
1a
#1053977
0d
#1056926
1N
1&
#1057720
0D
00
#1057733
0B
02
#1058004
1?
15
#1058372
0A
03
#1059974
0C
01
#1100000
0"
0!
07
#1100858
0R
0U
#1101066
0S
0V
#1102939
0W
0Y
0[
#1103401
1T
#1103512
0\
#1104103
0c
#1104104
0a
#1104122
0b
#1106345
0O
0%
#1106859
0N
0&
#1107250
0P
0$
#1107699
1B
12
#1108229
1A
13
#1109577
1C
11
#1140000
1"
17
#1140749
1U
#1140971
1V
#1150000
1!
07
#1150749
1R
#1150971
1S
#1152843
1W
#1153325
0T
#1153384
1X
#1153967
1c
1b
#1153968
1a
1^
#1156926
1N
1&
#1157528
0>
06
#1157733
0B
02
#1158372
0A
03
#1159974
0C
01
#1200000
0!
17
#1200858
0R
#1201066
0S
#1250000
1!
07
#1250749
1R
#1250971
1S
#1252843
0W
1Y
#1253305
1T
#1253972
1d
#1253992
0a
0^
#1254026
0b
#1254036
1`
#1256350
1O
1%
#1256763
0N
0&
#1257389
1>
16
#1257603
1B
12
#1257898
1D
10
#1257962
0@
04
#1258117
1A
13
#1300000
0!
17
#1300858
0R
#1301066
0S
#1350000
1!
07
#1350749
1R
#1350971
1S
#1352843
1W
#1353325
0T
#1353362
0X
#1353384
1Z
#1353967
1b
#1353988
0`
#1356926
1N
1&
#1357729
1@
14
#1357733
0B
02
#1400000
0!
17
#1400858
0R
#1401066
0S
#1450000
1!
07
#1450749
1R
#1450971
1S
#1452843
0W
0Y
1[
#1453305
1T
#1453999
0c
#1454026
1a
1^
#1456249
0O
0%
#1456763
0N
0&
#1457313
1P
1$
#1457586
0>
06
#1458430
0A
03
#1459473
1C
11
#1500000
0!
17
#1500858
0R
#1501066
0S
#1550000
1!
07
#1550749
1R
#1550971
1S
#1552843
1W
#1553325
0T
#1553384
1X
#1553945
0_
#1553950
0a
0^
#1556926
1N
1&
#1557347
1>
16
#1557779
0?
05
#1558075
1A
13
#1600000
0!
17
#1600858
0R
#1601066
0S
#1650000
1!
07
#1650749
1R
#1650971
1S
#1652843
0W
1Y
#1653305
1T
#1654026
0b
#1656350
1O
1%
#1656763
0N
0&
#1657603
1B
12
#1700000
0!
17
#1700858
0R
#1701066
0S
#1750000
1!
07
#1750749
1R
#1750971
1S
#1752843
1W
#1753325
0T
#1753362
0X
0Z
#1753680
1\
#1753935
1_
#1753967
1c
1b
#1753968
1a
#1753977
0d
#1756926
1N
1&
#1757720
0D
00
#1757733
0B
02
#1758004
1?
15
#1758372
0A
03
#1759974
0C
01
#1800000
0!
17
#1800858
0R
#1801066
0S
#1850000
1!
07
#1850749
1R
#1850971
1S
#1852843
0W
0Y
0[
1]
#1853305
1T
#1853796
1d
#1854007
0c
#1854008
0a
#1854026
0b
#1856249
0O
0%
#1856471
1Q
1#
#1856763
0N
0&
#1857154
0P
0$
#1857603
1B
12
#1857722
1D
10
#1858133
1A
13
#1859481
1C
11
#1900000
0!
17
#1900858
0R
#1901066
0S
#1950000
1!
07
#1950749
1R
#1950971
1S
#1952843
1W
#1953325
0T
#1953384
1X
#1953967
1b
#1953968
1a
#1956926
1N
1&
#1957733
0B
02
#1958372
0A
03
