FPGA/trigger/simulation/qsim/trigger.msim.vcd
$comment
	File created using the following command:
		vcd file trigger.msim.vcd -direction
$end
$date
	Tue Nov 22 21:25:17 2022
$end
$version
	ModelSim Version 10.1d
$end
$timescale
	1ps
$end
$scope module trigger_vlg_vec_tst $end
$var reg 1 ! CLK $end
$var reg 8 " D [7:0] $end
$var reg 1 # nCLR $end
$var wire 1 $ Q [7] $end
$var wire 1 % Q [6] $end
$var wire 1 & Q [5] $end
$var wire 1 ' Q [4] $end
$var wire 1 ( Q [3] $end
$var wire 1 ) Q [2] $end
$var wire 1 * Q [1] $end
$var wire 1 + Q [0] $end
$var wire 1 , sampler $end
$scope module i1 $end
$var wire 1 - gnd $end
$var wire 1 . vcc $end
$var wire 1 / unknown $end
$var tri1 1 0 devclrn $end
$var tri1 1 1 devpor $end
$var tri1 1 2 devoe $end
$var wire 1 3 Q[0]~output_o $end
$var wire 1 4 Q[1]~output_o $end
$var wire 1 5 Q[2]~output_o $end
$var wire 1 6 Q[3]~output_o $end
$var wire 1 7 Q[4]~output_o $end
$var wire 1 8 Q[5]~output_o $end
$var wire 1 9 Q[6]~output_o $end
$var wire 1 : Q[7]~output_o $end
$var wire 1 ; CLK~input_o $end
$var wire 1 < CLK~inputclkctrl_outclk $end
$var wire 1 = D[0]~input_o $end
$var wire 1 > nCLR~input_o $end
$var wire 1 ? nCLR~inputclkctrl_outclk $end
$var wire 1 @ Q[0]~reg0_q $end
$var wire 1 A D[1]~input_o $end
$var wire 1 B Q[1]~reg0feeder_combout $end
$var wire 1 C Q[1]~reg0_q $end
$var wire 1 D D[2]~input_o $end
$var wire 1 E Q[2]~reg0_q $end
$var wire 1 F D[3]~input_o $end
$var wire 1 G Q[3]~reg0_q $end
$var wire 1 H D[4]~input_o $end
$var wire 1 I Q[4]~reg0feeder_combout $end
$var wire 1 J Q[4]~reg0_q $end
$var wire 1 K D[5]~input_o $end
$var wire 1 L Q[5]~reg0feeder_combout $end
$var wire 1 M Q[5]~reg0_q $end
$var wire 1 N D[6]~input_o $end
$var wire 1 O Q[6]~reg0feeder_combout $end
$var wire 1 P Q[6]~reg0_q $end
$var wire 1 Q D[7]~input_o $end
$var wire 1 R Q[7]~reg0_q $end
$upscope $end
$upscope $end
$enddefinitions $end
#0
$dumpvars
0!
b0 "
1#
x+
x*
x)
x(
x'
x&
x%
x$
x,
0-
1.
x/
10
11
12
x3
x4
x5
x6
x7
x8
x9
x:
0;
x<
0=
1>
x?
0@
0A
xB
0C
0D
0E
0F
0G
0H
xI
0J
0K
xL
0M
0N
xO
0P
0Q
0R
$end
#208
0<
#222
1?
#3378
08
0L
0&
#3386
0B
#3508
04
0*
#3588
06
0(
#3589
03
0+
#3590
05
0)
#3603
07
0'
#3608
0:
09
0$
0%
#3647
0I
#3715
0O
#50000
b1 "
0,
#50748
1=
#100000
b11 "
1!
b10 "
1,
#100749
1;
1A
#100857
0=
#100971
1<
#102863
1@
#103927
1B
#106610
13
1+
#150000
b11 "
0,
#150748
1=
#200000
b111 "
b101 "
0!
b100 "
1,
#200748
1D
#200857
0=
#200858
0;
0A
#201066
0<
#204244
0B
#250000
b101 "
0,
#250748
1=
#300000
b111 "
1!
b110 "
1,
#300749
1;
1A
#300857
0=
#300971
1<
#302835
1E
#303927
1B
#306590
15
1)
#350000
b111 "
0,
#350748
1=
#400000
b1111 "
b1011 "
b1001 "
0!
b1000 "
1,
#400748
1F
#400857
0D
0=
#400858
0;
0A
#401066
0<
#404244
0B
#420000
0#
0,
#420858
0>
#421066
0?
#422931
0E
#422959
0@
#426521
05
0)
#426548
03
0+
#430000
1#
1,
#430749
1>
#430971
1?
#450000
b1001 "
0,
#450748
1=
#500000
b1011 "
1!
b1010 "
1,
#500749
1;
1A
#500857
0=
#500971
1<
#502863
1@
#502872
1G
#503927
1B
#506610
13
1+
#506624
16
1(
#550000
b1011 "
0,
#550748
1=
#600000
b1111 "
b1101 "
0!
b1100 "
1,
#600748
1D
#600857
0=
#600858
0;
0A
#601066
0<
#604244
0B
#630000
0#
0,
#630858
0>
#631066
0?
#632959
0@
#632968
0G
#636548
03
0+
#636556
06
0(
#640000
1#
1,
#640749
1>
#640971
1?
#650000
b1101 "
0,
#650748
1=
#700000
b1111 "
1!
b1110 "
1,
#700749
1;
1A
#700857
0=
#700971
1<
#702835
1E
#702863
1@
#702872
1G
#703927
1B
#706590
15
1)
#706610
13
1+
#706624
16
1(
#750000
b1111 "
0,
#750748
1=
#800000
b11111 "
b10111 "
b10011 "
b10001 "
0!
b10000 "
1,
#800748
1H
#800857
0F
0D
0=
#800858
0;
0A
#801066
0<
#804186
1I
#804244
0B
#850000
b10001 "
0,
#850748
1=
#900000
b10011 "
1!
b10010 "
1,
#900749
1;
1A
#900857
0=
#900971
1<
#902835
0E
#902846
1J
#902872
0G
#903927
1B
#906425
05
0)
#906460
06
0(
#906613
17
1'
#950000
b10011 "
0,
#950748
1=
