FPGA/mux4/simulation/qsim/mux4.msim.vcd
$comment
	File created using the following command:
		vcd file mux4.msim.vcd -direction
$end
$date
	Wed Nov 09 19:28:57 2022
$end
$version
	ModelSim Version 10.1d
$end
$timescale
	1ps
$end
$scope module mux4_vlg_vec_tst $end
$var reg 1 ! in0 $end
$var reg 1 " in1 $end
$var reg 1 # in2 $end
$var reg 1 $ in3 $end
$var reg 2 % sel [1:0] $end
$var wire 1 & out $end
$var wire 1 ' sampler $end
$scope module i1 $end
$var wire 1 ( gnd $end
$var wire 1 ) vcc $end
$var wire 1 * unknown $end
$var tri1 1 + devclrn $end
$var tri1 1 , devpor $end
$var tri1 1 - devoe $end
$var wire 1 . out~output_o $end
$var wire 1 / in2~input_o $end
$var wire 1 0 sel[1]~input_o $end
$var wire 1 1 in3~input_o $end
$var wire 1 2 sel[0]~input_o $end
$var wire 1 3 in1~input_o $end
$var wire 1 4 in0~input_o $end
$var wire 1 5 Mux0~0_combout $end
$var wire 1 6 Mux0~1_combout $end
$upscope $end
$upscope $end
$enddefinitions $end
#0
$dumpvars
0!
0"
0#
0$
b0 %
0&
x'
0(
1)
x*
1+
1,
1-
0.
0/
00
01
02
03
04
05
06
$end
#10000
1!
14
0'
15
16
1.
1&
#20000
1"
b10 %
0!
13
10
04
1'
05
06
0.
0&
#30000
1!
14
0'
#40000
1#
b11 %
0"
b1 %
0!
1/
12
00
03
04
1'
#50000
1!
14
0'
#60000
1"
b11 %
0!
13
10
04
1'
15
16
1.
1&
06
0.
0&
#70000
1!
14
0'
#80000
1$
0#
b10 %
0"
b0 %
0!
11
0/
02
00
03
04
1'
05
16
1.
1&
06
0.
0&
#90000
1!
14
0'
15
16
1.
1&
#100000
1"
b10 %
0!
13
10
04
1'
05
06
0.
0&
#110000
1!
14
0'
#120000
1#
b11 %
0"
b1 %
0!
1/
12
00
03
04
1'
#130000
1!
14
0'
#140000
1"
b11 %
0!
13
10
04
1'
15
16
1.
1&
#150000
1!
14
0'
#160000
0$
0#
b10 %
0"
b0 %
0!
01
0/
02
00
03
04
1'
05
06
0.
0&
#170000
1!
14
0'
15
16
1.
1&
#180000
1"
b10 %
0!
13
10
04
1'
05
06
0.
0&
#190000
1!
14
0'
#200000
1#
b11 %
0"
b1 %
0!
1/
12
00
03
04
1'
#210000
1!
14
0'
#220000
1"
b11 %
0!
13
10
04
1'
15
16
1.
1&
06
0.
0&
#230000
1!
14
0'
#240000
1$
0#
b10 %
0"
b0 %
0!
11
0/
02
00
03
04
1'
05
16
1.
1&
06
0.
0&
#250000
1!
14
0'
15
16
1.
1&
#260000
1"
b10 %
0!
13
10
04
1'
05
06
0.
0&
#270000
1!
14
0'
#280000
1#
b11 %
0"
b1 %
0!
1/
12
00
03
04
1'
#290000
1!
14
0'
#300000
1"
b11 %
0!
13
10
04
1'
15
16
1.
1&
#310000
1!
14
0'
#320000
0$
0#
b10 %
0"
b0 %
0!
01
0/
02
00
03
04
1'
05
06
0.
0&
#330000
1!
14
0'
15
16
1.
1&
#340000
1"
b10 %
0!
13
10
04
1'
05
06
0.
0&
#350000
1!
14
0'
#360000
1#
b11 %
0"
b1 %
0!
1/
12
00
03
04
1'
#370000
1!
14
0'
#380000
1"
b11 %
0!
13
10
04
1'
15
16
1.
1&
06
0.
0&
#390000
1!
14
0'
#400000
1$
0#
b10 %
0"
b0 %
0!
11
0/
02
00
03
04
1'
05
16
1.
1&
06
0.
0&
#410000
1!
14
0'
15
16
1.
1&
#420000
1"
b10 %
0!
13
10
04
1'
05
06
0.
0&
#430000
1!
14
0'
#440000
1#
b11 %
0"
b1 %
0!
1/
12
00
03
04
1'
#450000
1!
14
0'
#460000
1"
b11 %
0!
13
10
04
1'
15
16
1.
1&
#470000
1!
14
0'
#480000
0$
0#
b10 %
0"
b0 %
0!
01
0/
02
00
03
04
1'
05
06
0.
0&
#490000
1!
14
0'
15
16
1.
1&
#500000
1"
b10 %
0!
13
10
04
1'
05
06
0.
0&
#510000
1!
14
0'
#520000
1#
b11 %
0"
b1 %
0!
1/
12
00
03
04
1'
#530000
1!
14
0'
#540000
1"
b11 %
0!
13
10
04
1'
15
16
1.
1&
06
0.
0&
#550000
1!
14
0'
#560000
1$
0#
b10 %
0"
b0 %
0!
11
0/
02
00
03
04
1'
05
16
1.
1&
06
0.
0&
#570000
1!
14
0'
15
16
1.
1&
#580000
1"
b10 %
0!
13
10
04
1'
05
06
0.
0&
#590000
1!
14
0'
#600000
1#
b11 %
0"
b1 %
0!
1/
12
00
03
04
1'
#610000
1!
14
0'
#620000
1"
b11 %
0!
13
10
04
1'
15
16
1.
1&
#630000
1!
14
0'
#640000
0$
0#
b10 %
0"
b0 %
0!
01
0/
02
00
03
04
1'
05
06
0.
0&
#650000
1!
14
0'
15
16
1.
1&
#660000
1"
b10 %
0!
13
10
04
1'
05
06
0.
0&
#670000
1!
14
0'
#680000
1#
b11 %
0"
b1 %
0!
1/
12
00
03
04
1'
#690000
1!
14
0'
#700000
1"
b11 %
0!
13
10
04
1'
15
16
1.
1&
06
0.
0&
#710000
1!
14
0'
#720000
1$
0#
b10 %
0"
b0 %
0!
11
0/
02
00
03
04
1'
05
16
1.
1&
06
0.
0&
#730000
1!
14
0'
15
16
1.
1&
#740000
1"
b10 %
0!
13
10
04
1'
05
06
0.
0&
#750000
1!
14
0'
#760000
1#
b11 %
0"
b1 %
0!
1/
12
00
03
04
1'
#770000
1!
14
0'
#780000
1"
b11 %
0!
13
10
04
1'
15
16
1.
1&
#790000
1!
14
0'
#800000
0$
0#
b10 %
0"
b0 %
0!
01
0/
02
00
03
04
1'
05
06
0.
0&
#810000
1!
14
0'
15
16
1.
1&
#820000
1"
b10 %
0!
13
10
04
1'
05
06
0.
0&
#830000
1!
14
0'
#840000
1#
b11 %
0"
b1 %
0!
1/
12
00
03
04
1'
#850000
1!
14
0'
#860000
1"
b11 %
0!
13
10
04
1'
15
16
1.
1&
06
0.
0&
#870000
1!
14
0'
#880000
1$
0#
b10 %
0"
b0 %
0!
11
0/
02
00
03
04
1'
05
16
1.
1&
06
0.
0&
#890000
1!
14
0'
15
16
1.
1&
#900000
1"
b10 %
0!
13
10
04
1'
05
06
0.
0&
#910000
1!
14
0'
#920000
1#
b11 %
0"
b1 %
0!
1/
12
00
03
04
1'
#930000
1!
14
0'
#940000
1"
b11 %
0!
13
10
04
1'
15
16
1.
1&
#950000
1!
14
0'
#960000
0$
0#
b10 %
0"
b0 %
0!
01
0/
02
00
03
04
1'
05
06
0.
0&
#970000
1!
14
0'
15
16
1.
1&
#980000
1"
b10 %
0!
13
10
04
1'
05
06
0.
0&
#990000
1!
14
0'
