FPGA/TestRam/simulation/qsim/TestRam.msim.vcd
$comment
	File created using the following command:
		vcd file TestRam.msim.vcd -direction
$end
$date
	Tue Dec 20 21:23:02 2022
$end
$version
	ModelSim Version 10.1d
$end
$timescale
	1ps
$end
$scope module TestRam_vlg_vec_tst $end
$var reg 8 ! ABus [7:0] $end
$var reg 1 " bclk $end
$var reg 1 # bnRD $end
$var reg 1 $ bnWR $end
$var reg 8 % in244 [7:0] $end
$var wire 1 & DBus [7] $end
$var wire 1 ' DBus [6] $end
$var wire 1 ( DBus [5] $end
$var wire 1 ) DBus [4] $end
$var wire 1 * DBus [3] $end
$var wire 1 + DBus [2] $end
$var wire 1 , DBus [1] $end
$var wire 1 - DBus [0] $end
$var wire 1 . sampler $end
$scope module i1 $end
$var wire 1 / gnd $end
$var wire 1 0 vcc $end
$var wire 1 1 unknown $end
$var tri1 1 2 devclrn $end
$var tri1 1 3 devpor $end
$var tri1 1 4 devoe $end
$var wire 1 5 DBus[0]~output_o $end
$var wire 1 6 DBus[1]~output_o $end
$var wire 1 7 DBus[2]~output_o $end
$var wire 1 8 DBus[3]~output_o $end
$var wire 1 9 DBus[4]~output_o $end
$var wire 1 : DBus[5]~output_o $end
$var wire 1 ; DBus[6]~output_o $end
$var wire 1 < DBus[7]~output_o $end
$var wire 1 = bnWR~input_o $end
$var wire 1 > bnRD~input_o $end
$var wire 1 ? always0~0_combout $end
$var wire 1 @ in244[0]~input_o $end
$var wire 1 A bclk~input_o $end
$var wire 1 B bclk~inputclkctrl_outclk $end
$var wire 1 C DBus[7]~9_combout $end
$var wire 1 D DBus[0]_51~combout $end
$var wire 1 E DBus[0]~17_combout $end
$var wire 1 F ABus[0]~input_o $end
$var wire 1 G ABus[1]~input_o $end
$var wire 1 H ABus[2]~input_o $end
$var wire 1 I ABus[3]~input_o $end
$var wire 1 J ABus[4]~input_o $end
$var wire 1 K ABus[5]~input_o $end
$var wire 1 L ABus[6]~input_o $end
$var wire 1 M ABus[7]~input_o $end
$var wire 1 N DBus[7]~9clkctrl_outclk $end
$var wire 1 O in244[1]~input_o $end
$var wire 1 P in244[2]~input_o $end
$var wire 1 Q in244[3]~input_o $end
$var wire 1 R in244[4]~input_o $end
$var wire 1 S in244[5]~input_o $end
$var wire 1 T in244[6]~input_o $end
$var wire 1 U in244[7]~input_o $end
$var wire 1 V DBus[7]~16_combout $end
$var wire 1 W DBus[7]$latch~combout $end
$var wire 1 X DBus[7]~24_combout $end
$var wire 1 Y DBus[6]~15_combout $end
$var wire 1 Z DBus[6]$latch~combout $end
$var wire 1 [ DBus[6]~23_combout $end
$var wire 1 \ DBus[5]~14_combout $end
$var wire 1 ] DBus[5]$latch~combout $end
$var wire 1 ^ DBus[5]~22_combout $end
$var wire 1 _ DBus[4]~13_combout $end
$var wire 1 ` DBus[4]$latch~combout $end
$var wire 1 a DBus[4]~21_combout $end
$var wire 1 b DBus[3]~12_combout $end
$var wire 1 c DBus[3]$latch~combout $end
$var wire 1 d DBus[3]~20_combout $end
$var wire 1 e DBus[2]~11_combout $end
$var wire 1 f DBus[2]$latch~combout $end
$var wire 1 g DBus[2]~19_combout $end
$var wire 1 h DBus[1]~10_combout $end
$var wire 1 i DBus[1]$latch~combout $end
$var wire 1 j DBus[1]~18_combout $end
$var wire 1 k DBus[0]~8_combout $end
$var wire 1 l DBus[0]$latch~combout $end
$var wire 1 m R|altsyncram_component|auto_generated|q_a [7] $end
$var wire 1 n R|altsyncram_component|auto_generated|q_a [6] $end
$var wire 1 o R|altsyncram_component|auto_generated|q_a [5] $end
$var wire 1 p R|altsyncram_component|auto_generated|q_a [4] $end
$var wire 1 q R|altsyncram_component|auto_generated|q_a [3] $end
$var wire 1 r R|altsyncram_component|auto_generated|q_a [2] $end
$var wire 1 s R|altsyncram_component|auto_generated|q_a [1] $end
$var wire 1 t R|altsyncram_component|auto_generated|q_a [0] $end
$var wire 1 u R|altsyncram_component|auto_generated|ram_block1a0_PORTADATAOUT_bus [17] $end
$var wire 1 v R|altsyncram_component|auto_generated|ram_block1a0_PORTADATAOUT_bus [16] $end
$var wire 1 w R|altsyncram_component|auto_generated|ram_block1a0_PORTADATAOUT_bus [15] $end
$var wire 1 x R|altsyncram_component|auto_generated|ram_block1a0_PORTADATAOUT_bus [14] $end
$var wire 1 y R|altsyncram_component|auto_generated|ram_block1a0_PORTADATAOUT_bus [13] $end
$var wire 1 z R|altsyncram_component|auto_generated|ram_block1a0_PORTADATAOUT_bus [12] $end
$var wire 1 { R|altsyncram_component|auto_generated|ram_block1a0_PORTADATAOUT_bus [11] $end
$var wire 1 | R|altsyncram_component|auto_generated|ram_block1a0_PORTADATAOUT_bus [10] $end
$var wire 1 } R|altsyncram_component|auto_generated|ram_block1a0_PORTADATAOUT_bus [9] $end
$var wire 1 ~ R|altsyncram_component|auto_generated|ram_block1a0_PORTADATAOUT_bus [8] $end
$var wire 1 !! R|altsyncram_component|auto_generated|ram_block1a0_PORTADATAOUT_bus [7] $end
$var wire 1 "! R|altsyncram_component|auto_generated|ram_block1a0_PORTADATAOUT_bus [6] $end
$var wire 1 #! R|altsyncram_component|auto_generated|ram_block1a0_PORTADATAOUT_bus [5] $end
$var wire 1 $! R|altsyncram_component|auto_generated|ram_block1a0_PORTADATAOUT_bus [4] $end
$var wire 1 %! R|altsyncram_component|auto_generated|ram_block1a0_PORTADATAOUT_bus [3] $end
$var wire 1 &! R|altsyncram_component|auto_generated|ram_block1a0_PORTADATAOUT_bus [2] $end
$var wire 1 '! R|altsyncram_component|auto_generated|ram_block1a0_PORTADATAOUT_bus [1] $end
$var wire 1 (! R|altsyncram_component|auto_generated|ram_block1a0_PORTADATAOUT_bus [0] $end
$upscope $end
$upscope $end
$enddefinitions $end
#0
$dumpvars
b0 !
0"
1#
1$
b0 %
x-
x,
x+
x*
x)
x(
x'
x&
x.
0/
10
x1
12
13
14
x5
x6
x7
x8
x9
x:
x;
x<
1=
1>
x?
0@
0A
xB
xC
xD
xE
0F
0G
0H
0I
0J
0K
0L
0M
xN
0O
0P
0Q
0R
0S
0T
0U
xV
xW
xX
xY
xZ
x[
x\
x]
x^
x_
x`
xa
xb
xc
xd
xe
xf
xg
xh
xi
xj
xk
xl
0t
0s
0r
0q
0p
0o
0n
0m
0(!
0'!
0&!
0%!
0$!
0#!
0"!
0!!
0~
0}
0|
0{
0z
0y
0x
0w
0v
0u
$end
#208
0B
#2861
1?
#3068
z6
z8
z<
z,
z*
z&
#3157
z:
z(
#3158
z5
z9
z-
z)
#3863
0C
#4309
0_
#4322
0Y
#4336
0V
#4353
0b
#4389
0e
#4509
0k
#4569
z7
z+
#4641
0h
#4659
z;
z'
#4709
0\
#4992
0N
#10000
1"
0$
0.
#10766
1A
#10812
0=
#10988
1B
#14895
1C
#16062
1N
#16874
1D
#17615
0c
0l
#17617
0]
#17640
0Z
0`
#17807
0f
#17808
0i
#17810
0W
#18055
0^
#18067
0d
0E
#18079
0a
#18095
0[
#18260
0g
#18261
0X
#18430
0j
#20000
0"
1.
#20812
0A
#21020
0B
#21946
08
0*
#21997
09
0)
#22007
06
0,
#22024
0<
0&
#22054
05
0-
#22174
0:
0(
#23447
0;
0'
#23552
07
0+
#30000
1"
0.
#30766
1A
#30988
1B
#40000
0"
1.
#40812
0A
#41020
0B
#50000
b1 %
1"
0.
#50766
1A
1@
#50988
1B
#55099
1k
#55868
1l
#56318
1E
#60000
0"
1.
#60473
15
1-
#60812
0A
#61020
0B
#70000
1"
0.
#70766
1A
#70988
1B
#80000
1$
0"
1.
#80766
1=
#80812
0A
#81020
0B
#84629
0C
#85758
0N
#90000
1"
0.
#90766
1A
#90988
1B
#100000
b11 %
b10 %
0"
1.
#100764
1O
#100812
0A
0@
#101020
0B
#105249
1h
#105321
0k
#110000
1"
0.
#110766
1A
#110988
1B
#120000
0"
1.
#120812
0A
#121020
0B
#130000
1"
0.
#130766
1A
#130988
1B
#140000
0"
1.
#140812
0A
#141020
0B
#150000
b11 %
1"
0.
#150766
1A
1@
#150988
1B
#155099
1k
#160000
0#
0"
1.
#160811
0>
#160812
0A
#161020
0B
#162564
1C
#163731
1N
#164245
0k
#164658
0h
#165284
0l
#165736
0E
#169723
05
0-
#170000
1"
0.
#170766
1A
#170988
1B
#176209
1(!
1t
#176862
1k
#177631
1l
#178081
1E
#180000
0"
1.
#180812
0A
#181020
0B
#182236
15
1-
#190000
1"
0.
#190766
1A
#190988
1B
#200000
b111 %
b101 %
b100 %
0"
1.
#200764
1P
#200811
0O
#200812
0A
0@
#201020
0B
#210000
1"
0.
#210766
1A
#210988
1B
#220000
0"
1.
#220812
0A
#221020
0B
#230000
1"
0.
#230766
1A
#230988
1B
#240000
1#
0"
1.
#240764
1>
#240812
0A
#241020
0B
#242625
0C
#243754
0N
#244088
0k
#244548
1e
#244820
0l
#244962
1f
#245272
0E
#245412
1g
#249259
05
0-
#250000
0$
b101 %
1"
0.
#250766
1A
1@
#250797
17
1+
#250812
0=
#250988
1B
#254895
1C
#255099
1k
#256062
1N
#257637
1l
#258087
1E
#260000
0"
1.
#260812
0A
#261020
0B
#262242
15
1-
#270000
1"
0.
#270766
1A
#270988
1B
#280000
0"
1.
#280812
0A
#281020
0B
#290000
1"
0.
#290766
1A
#290988
1B
#300000
b111 %
b110 %
0"
1.
#300764
1O
#300812
0A
0@
#301020
0B
#305249
1h
#305321
0k
#305663
1i
#306053
0l
#306264
1j
#306505
0E
#310000
1"
0.
#310069
16
1,
#310492
05
0-
#310766
1A
#310988
1B
#320000
0"
1.
#320812
0A
#321020
0B
#330000
1"
0.
#330766
1A
#330988
1B
#340000
0"
1.
#340812
0A
#341020
0B
#350000
b111 %
1"
0.
#350766
1A
1@
#350988
1B
#355099
1k
#355868
1l
#356318
1E
#360000
b1 !
1$
0"
1.
#360473
15
1-
#360766
1F
1=
#360812
0A
#361020
0B
#364629
0C
#365758
0N
#370000
1"
0.
#370766
1A
#370988
1B
#380000
0"
1.
#380812
0A
#381020
0B
#390000
0$
1"
0.
#390766
1A
#390812
0=
#390988
1B
#394895
1C
#396062
1N
#400000
b1111 %
b1011 %
b1001 %
b1000 %
0"
1.
#400764
1Q
#400811
0P
0O
#400812
0A
0@
#401020
0B
#404871
1b
#405200
0e
#405321
0k
#405452
0h
#405610
0f
#405680
1c
#405863
0i
#406053
0l
#406063
0g
#406130
1d
#406485
0j
#406505
0E
#410000
1"
0.
#410062
06
0,
#410229
18
1*
#410492
05
0-
#410766
1A
#410988
1B
#411355
07
0+
#420000
0"
1.
#420812
0A
#421020
0B
#430000
1"
0.
#430766
1A
#430988
1B
#440000
0"
1.
#440812
0A
#441020
0B
#450000
b1001 %
1"
0.
#450766
1A
1@
#450988
1B
#455099
1k
#455868
1l
#456318
1E
#460000
0"
1.
#460473
15
1-
#460812
0A
#461020
0B
#470000
1"
0.
#470766
1A
#470988
1B
#480000
0"
1.
#480812
0A
#481020
0B
#490000
1"
0.
#490766
1A
#490988
1B
#500000
b1011 %
b1010 %
0"
1.
#500764
1O
#500812
0A
0@
#501020
0B
#505249
1h
#505321
0k
#505663
1i
#506053
0l
#506264
1j
#506505
0E
#510000
1"
0.
#510069
16
1,
#510492
05
0-
#510766
1A
#510988
1B
#520000
0"
1.
#520812
0A
#521020
0B
#530000
1"
0.
#530766
1A
#530988
1B
#540000
0"
1.
#540812
0A
#541020
0B
#550000
b1011 %
1"
0.
#550766
1A
1@
#550988
1B
#555099
1k
#555868
1l
#556318
1E
#560000
0"
1.
#560473
15
1-
#560812
0A
#561020
0B
#570000
1"
0.
#570766
1A
#570988
1B
#580000
0#
1$
0"
1.
#580766
1=
#580811
0>
#580812
0A
#581020
0B
#583791
0?
#584248
0b
#584658
0h
#585025
0c
#585091
0i
#585174
0D
#585377
0l
#585385
1?
#585477
0d
#585713
0j
#586042
1d
1^
#586344
1a
1[
#586346
1g
1X
#586553
1j
#586875
1D
#587040
1l
#587704
0d
0^
#588066
0a
#588067
0[
#588068
0g
#588069
0X
#588292
0j
#590000
1"
0.
#590766
1A
#590988
1B
#591419
08
0*
#591451
06
0,
#596209
1'!
1%!
1s
1q
#596896
1b
#597229
1h
#597643
1i
#597705
1c
#598155
1d
#598244
1j
#600000
b1111 %
b1101 %
b1100 %
0"
1.
#600764
1P
#600811
0O
#600812
0A
0@
#601020
0B
#602049
16
1,
#602254
18
1*
#610000
1"
0.
#610766
1A
#610988
1B
#620000
0"
1.
#620812
0A
#621020
0B
#630000
1"
0.
#630766
1A
#630988
1B
#640000
0"
1.
#640812
0A
#641020
0B
#650000
b1101 %
1"
0.
#650766
1A
1@
#650988
1B
#660000
0"
1.
#660812
0A
#661020
0B
#670000
1"
0.
#670766
1A
#670988
1B
#680000
0"
1.
#680812
0A
#681020
0B
#690000
1"
0.
#690766
1A
#690988
1B
#700000
b1111 %
b1110 %
0"
1.
#700764
1O
#700812
0A
0@
#701020
0B
#710000
1"
0.
#710766
1A
#710988
1B
#720000
0"
1.
#720812
0A
#721020
0B
#730000
1"
0.
#730766
1A
#730988
1B
#740000
0"
1.
#740812
0A
#741020
0B
#750000
b1111 %
1"
0.
#750766
1A
1@
#750988
1B
#760000
0"
1.
#760812
0A
#761020
0B
#770000
1"
0.
#770766
1A
#770988
1B
#780000
b0 !
0"
1.
#780812
0F
0A
#781020
0B
#790000
1"
0.
#790766
1A
#790988
1B
#796209
0(!
1&!
0%!
0t
1r
0q
#796812
0k
#796839
0b
#797194
1e
#797544
0l
#797608
1f
#797616
0c
#797996
0E
#798058
1g
#798068
0d
#800000
b11111 %
b10111 %
b10011 %
b10001 %
b10000 %
0"
1.
#800764
1R
#800811
0Q
0P
0O
#800812
0A
0@
#801020
0B
#801947
08
0*
#801983
05
0-
#803443
17
1+
#810000
1"
0.
#810766
1A
#810988
1B
#820000
0"
1.
#820812
0A
#821020
0B
#830000
1"
0.
#830766
1A
#830988
1B
#840000
0"
1.
#840812
0A
#841020
0B
#850000
b10001 %
1"
0.
#850766
1A
1@
#850988
1B
#860000
0"
1.
#860812
0A
#861020
0B
#870000
1"
0.
#870766
1A
#870988
1B
#880000
0"
1.
#880812
0A
#881020
0B
#890000
1"
0.
#890766
1A
#890988
1B
#900000
b10011 %
b10010 %
0"
1.
#900764
1O
#900812
0A
0@
#901020
0B
#910000
0$
1"
0.
#910766
1A
#910812
0=
#910988
1B
#915533
0?
#916833
0i
#916916
0D
#917066
0f
#917455
0j
#917519
0g
#917784
1d
1^
1E
#918086
1a
1[
#918088
1g
1X
#918295
1j
#920000
0"
1.
#920812
0A
#921020
0B
#921326
z6
z,
#921411
z<
z8
z&
z*
#921513
z9
z5
z)
z-
#922111
z:
z(
#922865
z7
z+
#923046
z;
z'
#930000
1#
1"
0.
#930764
1>
#930766
1A
#930988
1B
#933625
1?
#934536
0e
#934548
1_
#934972
1i
#935109
1`
#935115
1D
#935944
0d
0^
#935945
0E
#936307
0[
#936308
0g
#936309
0X
#936433
1(!
1%!
1$!
1#!
1"!
1!!
1t
1q
1p
1o
1n
1m
#939659
0<
08
0&
0*
#939789
16
1,
#939801
05
0-
#939878
19
1)
#940000
0"
1.
#940415
0:
0(
#940812
0A
#941020
0B
#941214
07
0+
#941358
0;
0'
#950000
b10011 %
1"
0.
#950766
1A
1@
#950988
1B
#955099
1k
#955868
1l
#956318
1E
#960000
0"
1.
#960473
15
1-
#960812
0A
#961020
0B
#970000
1$
0#
1"
0.
#970766
1A
1=
#970811
0>
#970988
1B
#973791
0?
#974259
1\
#974260
1b
#974669
1V
1Y
#974671
1e
#975091
0i
#975174
0D
#975327
0`
#975377
0l
#975385
1?
#975713
0j
#975766
0a
#976042
1d
1^
#976344
1a
1[
#976346
1g
1X
#976553
1j
#976732
1i
#976875
1D
#976973
1f
#976975
1W
1`
#976976
1Z
#977040
1c
1l
#977042
1]
#980000
0"
1.
#980812
0A
#981020
0B
#981426
1:
1(
#981517
1<
1&
#981589
18
1*
#982972
17
1+
#983140
1;
1'
#990000
1"
0.
#990766
1A
#990988
1B
#996209
0&!
0%!
0#!
0"!
0!!
0r
0q
0o
0n
0m
#996837
0\
#996839
0b
#997102
0Y
#997111
0e
#997149
0V
#997521
0f
#997559
0W
#997579
0]
#997616
0c
#997679
0Z
#997974
0g
#998010
0X
#998017
0^
#998068
0d
#998134
0[
