FPGA/Calc/simulation/qsim/Calc.msim.vcd
$comment
	File created using the following command:
		vcd file Calc.msim.vcd -direction
$end
$date
	Wed Dec 14 21:25:06 2022
$end
$version
	ModelSim Version 10.1d
$end
$timescale
	1ps
$end
$scope module Calc_vlg_vec_tst $end
$var reg 4 ! A [3:0] $end
$var reg 4 " B [3:0] $end
$var reg 1 # CN $end
$var reg 1 $ M $end
$var reg 4 % S [3:0] $end
$var wire 1 & CN4 $end
$var wire 1 ' F [3] $end
$var wire 1 ( F [2] $end
$var wire 1 ) F [1] $end
$var wire 1 * F [0] $end
$var wire 1 + digOut [7] $end
$var wire 1 , digOut [6] $end
$var wire 1 - digOut [5] $end
$var wire 1 . digOut [4] $end
$var wire 1 / digOut [3] $end
$var wire 1 0 digOut [2] $end
$var wire 1 1 digOut [1] $end
$var wire 1 2 digOut [0] $end
$var wire 1 3 segOut [7] $end
$var wire 1 4 segOut [6] $end
$var wire 1 5 segOut [5] $end
$var wire 1 6 segOut [4] $end
$var wire 1 7 segOut [3] $end
$var wire 1 8 segOut [2] $end
$var wire 1 9 segOut [1] $end
$var wire 1 : segOut [0] $end
$var wire 1 ; sampler $end
$scope module i1 $end
$var wire 1 < gnd $end
$var wire 1 = vcc $end
$var wire 1 > unknown $end
$var tri1 1 ? devclrn $end
$var tri1 1 @ devpor $end
$var tri1 1 A devoe $end
$var wire 1 B F[0]~output_o $end
$var wire 1 C F[1]~output_o $end
$var wire 1 D F[2]~output_o $end
$var wire 1 E F[3]~output_o $end
$var wire 1 F CN4~output_o $end
$var wire 1 G segOut[0]~output_o $end
$var wire 1 H segOut[1]~output_o $end
$var wire 1 I segOut[2]~output_o $end
$var wire 1 J segOut[3]~output_o $end
$var wire 1 K segOut[4]~output_o $end
$var wire 1 L segOut[5]~output_o $end
$var wire 1 M segOut[6]~output_o $end
$var wire 1 N segOut[7]~output_o $end
$var wire 1 O digOut[0]~output_o $end
$var wire 1 P digOut[1]~output_o $end
$var wire 1 Q digOut[2]~output_o $end
$var wire 1 R digOut[3]~output_o $end
$var wire 1 S digOut[4]~output_o $end
$var wire 1 T digOut[5]~output_o $end
$var wire 1 U digOut[6]~output_o $end
$var wire 1 V digOut[7]~output_o $end
$var wire 1 W A[0]~input_o $end
$var wire 1 X M~input_o $end
$var wire 1 Y B[0]~input_o $end
$var wire 1 Z ALU|F~9_combout $end
$var wire 1 [ ALU|Add19~0_combout $end
$var wire 1 \ ALU|Add20~0_combout $end
$var wire 1 ] CN~input_o $end
$var wire 1 ^ ALU|F~13_combout $end
$var wire 1 _ ALU|F~38_combout $end
$var wire 1 ` ALU|F~12_combout $end
$var wire 1 a S[3]~input_o $end
$var wire 1 b S[2]~input_o $end
$var wire 1 c ALU|F~8_combout $end
$var wire 1 d ALU|Add14~0_combout $end
$var wire 1 e ALU|Add15~0_combout $end
$var wire 1 f ALU|F~10_combout $end
$var wire 1 g ALU|F~11_combout $end
$var wire 1 h ALU|Mux4~0_combout $end
$var wire 1 i ALU|Add12~0_combout $end
$var wire 1 j ALU|Add8~0_combout $end
$var wire 1 k ALU|Add7~0_combout $end
$var wire 1 l ALU|F~6_combout $end
$var wire 1 m ALU|F~7_combout $end
$var wire 1 n ALU|Mux4~1_combout $end
$var wire 1 o ALU|F~16_combout $end
$var wire 1 p ALU|Add3~0_combout $end
$var wire 1 q ALU|Add4~0_combout $end
$var wire 1 r ALU|F~21_combout $end
$var wire 1 s ALU|F~40_combout $end
$var wire 1 t ALU|Add10~0_combout $end
$var wire 1 u ALU|Add11~0_combout $end
$var wire 1 v ALU|Mux4~4_combout $end
$var wire 1 w ALU|Mux4~5_combout $end
$var wire 1 x ALU|Mux4~6_combout $end
$var wire 1 y ALU|F~22_combout $end
$var wire 1 z ALU|Mux4~7_combout $end
$var wire 1 { S[0]~input_o $end
$var wire 1 | S[1]~input_o $end
$var wire 1 } ALU|F~14_combout $end
$var wire 1 ~ ALU|Add17~0_combout $end
$var wire 1 !! ALU|Add18~0_combout $end
$var wire 1 "! ALU|F~20_combout $end
$var wire 1 #! ALU|F~39_combout $end
$var wire 1 $! ALU|Add13~0_combout $end
$var wire 1 %! ALU|F~15_combout $end
$var wire 1 &! ALU|Add5~0_combout $end
$var wire 1 '! ALU|Add6~0_combout $end
$var wire 1 (! ALU|F~17_combout $end
$var wire 1 )! ALU|F~18_combout $end
$var wire 1 *! ALU|F~19_combout $end
$var wire 1 +! ALU|Mux4~2_combout $end
$var wire 1 ,! ALU|Mux4~3_combout $end
$var wire 1 -! ALU|Mux4~8_combout $end
$var wire 1 .! ALU|Mux4~9_combout $end
$var wire 1 /! ALU|Mux4~10_combout $end
$var wire 1 0! ALU|Mux4~11_combout $end
$var wire 1 1! ALU|Mux4~12_combout $end
$var wire 1 2! ALU|Mux3~6_combout $end
$var wire 1 3! ALU|Mux3~2_combout $end
$var wire 1 4! ALU|Mux3~0_combout $end
$var wire 1 5! ALU|Mux3~5_combout $end
$var wire 1 6! ALU|Mux3~3_combout $end
$var wire 1 7! ALU|Mux3~7_combout $end
$var wire 1 8! ALU|Mux3~1_combout $end
$var wire 1 9! ALU|Mux3~4_combout $end
$var wire 1 :! ALU|Mux3~8_combout $end
$var wire 1 ;! ALU|Mux3~9_combout $end
$var wire 1 <! A[1]~input_o $end
$var wire 1 =! B[1]~input_o $end
$var wire 1 >! ALU|F~23_combout $end
$var wire 1 ?! ALU|F~26_combout $end
$var wire 1 @! ALU|F~25_combout $end
$var wire 1 A! ALU|Add10~1 $end
$var wire 1 B! ALU|Add10~2_combout $end
$var wire 1 C! ALU|Add12~1 $end
$var wire 1 D! ALU|Add12~2_combout $end
$var wire 1 E! ALU|Add13~1 $end
$var wire 1 F! ALU|Add13~2_combout $end
$var wire 1 G! ALU|Mux3~18_combout $end
$var wire 1 H! ALU|Mux3~17_combout $end
$var wire 1 I! ALU|Mux3~19_combout $end
$var wire 1 J! ALU|F~27_combout $end
$var wire 1 K! ALU|Mux3~20_combout $end
$var wire 1 L! ALU|Add11~1 $end
$var wire 1 M! ALU|Add11~2_combout $end
$var wire 1 N! ALU|Mux3~21_combout $end
$var wire 1 O! ALU|Mux3~16_combout $end
$var wire 1 P! ALU|Mux3~22_combout $end
$var wire 1 Q! ALU|Mux3~23_combout $end
$var wire 1 R! ALU|Add14~1 $end
$var wire 1 S! ALU|Add14~2_combout $end
$var wire 1 T! ALU|Add15~1 $end
$var wire 1 U! ALU|Add15~2_combout $end
$var wire 1 V! ALU|Mux3~24_combout $end
$var wire 1 W! ALU|Mux3~25_combout $end
$var wire 1 X! ALU|Add16~6_combout $end
$var wire 1 Y! ALU|Mux3~26_combout $end
$var wire 1 Z! ALU|Mux3~27_combout $end
$var wire 1 [! ALU|F~24_combout $end
$var wire 1 \! ALU|Add17~1 $end
$var wire 1 ]! ALU|Add17~2_combout $end
$var wire 1 ^! ALU|Add18~1 $end
$var wire 1 _! ALU|Add18~2_combout $end
$var wire 1 `! ALU|Mux3~14_combout $end
$var wire 1 a! ALU|Mux3~15_combout $end
$var wire 1 b! ALU|Mux3~28_combout $end
$var wire 1 c! ALU|Mux3~11_combout $end
$var wire 1 d! ALU|Mux3~10_combout $end
$var wire 1 e! ALU|Mux3~12_combout $end
$var wire 1 f! ALU|Add19~1 $end
$var wire 1 g! ALU|Add19~2_combout $end
$var wire 1 h! ALU|Add20~1 $end
$var wire 1 i! ALU|Add20~2_combout $end
$var wire 1 j! ALU|Mux3~13_combout $end
$var wire 1 k! ALU|Mux3~29_combout $end
$var wire 1 l! ALU|Mux3~39_combout $end
$var wire 1 m! ALU|Mux3~40_combout $end
$var wire 1 n! ALU|Mux3~41_combout $end
$var wire 1 o! ALU|Add2~6_combout $end
$var wire 1 p! ALU|Mux3~42_combout $end
$var wire 1 q! ALU|Mux3~43_combout $end
$var wire 1 r! ALU|Mux3~38_combout $end
$var wire 1 s! ALU|Add5~1 $end
$var wire 1 t! ALU|Add5~2_combout $end
$var wire 1 u! ALU|Add6~1 $end
$var wire 1 v! ALU|Add6~2_combout $end
$var wire 1 w! ALU|Mux3~32_combout $end
$var wire 1 x! ALU|Mux3~33_combout $end
$var wire 1 y! ALU|Add9~6_combout $end
$var wire 1 z! ALU|Add8~1 $end
$var wire 1 {! ALU|Add8~2_combout $end
$var wire 1 |! ALU|Mux3~35_combout $end
$var wire 1 }! ALU|Add7~1 $end
$var wire 1 ~! ALU|Add7~2_combout $end
$var wire 1 !" ALU|Mux3~36_combout $end
$var wire 1 "" ALU|Add3~1 $end
$var wire 1 #" ALU|Add3~2_combout $end
$var wire 1 $" ALU|Add4~1 $end
$var wire 1 %" ALU|Add4~2_combout $end
$var wire 1 &" ALU|Mux3~34_combout $end
$var wire 1 '" ALU|Mux3~37_combout $end
$var wire 1 (" ALU|Mux3~30_combout $end
$var wire 1 )" ALU|Mux3~31_combout $end
$var wire 1 *" ALU|Mux3~44_combout $end
$var wire 1 +" ALU|Mux3~45_combout $end
$var wire 1 ," ALU|Mux3~46_combout $end
$var wire 1 -" ALU|Mux3~47_combout $end
$var wire 1 ." ALU|Mux3~48_combout $end
$var wire 1 /" ALU|Mux3~49_combout $end
$var wire 1 0" A[2]~input_o $end
$var wire 1 1" B[2]~input_o $end
$var wire 1 2" ALU|F~28_combout $end
$var wire 1 3" ALU|F~29_combout $end
$var wire 1 4" ALU|F~30_combout $end
$var wire 1 5" ALU|Add5~3 $end
$var wire 1 6" ALU|Add5~4_combout $end
$var wire 1 7" ALU|Add6~3 $end
$var wire 1 8" ALU|Add6~4_combout $end
$var wire 1 9" ALU|Mux2~0_combout $end
$var wire 1 :" ALU|Mux2~1_combout $end
$var wire 1 ;" ALU|Add3~3 $end
$var wire 1 <" ALU|Add3~4_combout $end
$var wire 1 =" ALU|Add4~3 $end
$var wire 1 >" ALU|Add4~4_combout $end
$var wire 1 ?" ALU|Mux2~2_combout $end
$var wire 1 @" ALU|Add8~3 $end
$var wire 1 A" ALU|Add8~4_combout $end
$var wire 1 B" ALU|F~31_combout $end
$var wire 1 C" ALU|Mux2~3_combout $end
$var wire 1 D" ALU|Add7~3 $end
$var wire 1 E" ALU|Add7~4_combout $end
$var wire 1 F" ALU|Add9~8_combout $end
$var wire 1 G" ALU|Mux2~4_combout $end
$var wire 1 H" ALU|Mux2~5_combout $end
$var wire 1 I" ALU|Add1~6_combout $end
$var wire 1 J" ALU|Add0~0_combout $end
$var wire 1 K" ALU|Mux2~16_combout $end
$var wire 1 L" ALU|Mux2~17_combout $end
$var wire 1 M" ALU|F~32_combout $end
$var wire 1 N" ALU|Add2~9_combout $end
$var wire 1 O" ALU|Mux2~18_combout $end
$var wire 1 P" ALU|Mux2~19_combout $end
$var wire 1 Q" ALU|Add19~3 $end
$var wire 1 R" ALU|Add19~4_combout $end
$var wire 1 S" ALU|Add21~0_combout $end
$var wire 1 T" ALU|Mux2~6_combout $end
$var wire 1 U" ALU|Add20~3 $end
$var wire 1 V" ALU|Add20~4_combout $end
$var wire 1 W" ALU|Mux2~7_combout $end
$var wire 1 X" ALU|Add10~3 $end
$var wire 1 Y" ALU|Add10~4_combout $end
$var wire 1 Z" ALU|Add11~3 $end
$var wire 1 [" ALU|Add11~4_combout $end
$var wire 1 \" ALU|Add12~3 $end
$var wire 1 ]" ALU|Add12~4_combout $end
$var wire 1 ^" ALU|Add13~3 $end
$var wire 1 _" ALU|Add13~4_combout $end
$var wire 1 `" ALU|Mux2~8_combout $end
$var wire 1 a" ALU|Mux2~9_combout $end
$var wire 1 b" ALU|Mux2~10_combout $end
$var wire 1 c" ALU|Add14~3 $end
$var wire 1 d" ALU|Add14~4_combout $end
$var wire 1 e" ALU|Add15~3 $end
$var wire 1 f" ALU|Add15~4_combout $end
$var wire 1 g" ALU|Mux2~11_combout $end
$var wire 1 h" ALU|Add16~8_combout $end
$var wire 1 i" ALU|Mux2~12_combout $end
$var wire 1 j" ALU|Mux2~13_combout $end
$var wire 1 k" ALU|Mux2~14_combout $end
$var wire 1 l" ALU|Add17~3 $end
$var wire 1 m" ALU|Add17~4_combout $end
$var wire 1 n" ALU|Add18~3 $end
$var wire 1 o" ALU|Add18~4_combout $end
$var wire 1 p" ALU|Mux2~15_combout $end
$var wire 1 q" ALU|Mux2~20_combout $end
$var wire 1 r" ALU|Mux2~21_combout $end
$var wire 1 s" ALU|Mux2~22_combout $end
$var wire 1 t" ALU|Mux2~23_combout $end
$var wire 1 u" ALU|Mux2~24_combout $end
$var wire 1 v" A[3]~input_o $end
$var wire 1 w" B[3]~input_o $end
$var wire 1 x" ALU|F~33_combout $end
$var wire 1 y" ALU|Add21~1_combout $end
$var wire 1 z" ALU|Mux1~0_combout $end
$var wire 1 {" ALU|Add19~5 $end
$var wire 1 |" ALU|Add19~6_combout $end
$var wire 1 }" ALU|Add20~5 $end
$var wire 1 ~" ALU|Add20~6_combout $end
$var wire 1 !# ALU|Mux1~1_combout $end
$var wire 1 "# ALU|F~34_combout $end
$var wire 1 ## ALU|Add17~5 $end
$var wire 1 $# ALU|Add17~6_combout $end
$var wire 1 %# ALU|Add18~5 $end
$var wire 1 &# ALU|Add18~6_combout $end
$var wire 1 '# ALU|F~35_combout $end
$var wire 1 (# ALU|Add16~7_combout $end
$var wire 1 )# ALU|Add14~5 $end
$var wire 1 *# ALU|Add14~6_combout $end
$var wire 1 +# ALU|Add15~5 $end
$var wire 1 ,# ALU|Add15~6_combout $end
$var wire 1 -# ALU|Mux1~5_combout $end
$var wire 1 .# ALU|Mux1~6_combout $end
$var wire 1 /# ALU|F~36_combout $end
$var wire 1 0# ALU|Add12~5 $end
$var wire 1 1# ALU|Add12~6_combout $end
$var wire 1 2# ALU|Add13~5 $end
$var wire 1 3# ALU|Add13~6_combout $end
$var wire 1 4# ALU|Mux1~2_combout $end
$var wire 1 5# ALU|F~37_combout $end
$var wire 1 6# ALU|Mux1~3_combout $end
$var wire 1 7# ALU|Add10~5 $end
$var wire 1 8# ALU|Add10~6_combout $end
$var wire 1 9# ALU|Add11~5 $end
$var wire 1 :# ALU|Add11~6_combout $end
$var wire 1 ;# ALU|Mux1~4_combout $end
$var wire 1 <# ALU|Mux1~7_combout $end
$var wire 1 =# ALU|Mux1~8_combout $end
$var wire 1 ># ALU|Mux1~9_combout $end
$var wire 1 ?# ALU|Add2~7_combout $end
$var wire 1 @# ALU|Add0~1_combout $end
$var wire 1 A# ALU|Mux1~16_combout $end
$var wire 1 B# ALU|Add1~7_combout $end
$var wire 1 C# ALU|Mux1~17_combout $end
$var wire 1 D# ALU|Mux1~18_combout $end
$var wire 1 E# ALU|Mux1~19_combout $end
$var wire 1 F# ALU|Add3~5 $end
$var wire 1 G# ALU|Add3~6_combout $end
$var wire 1 H# ALU|Add4~5 $end
$var wire 1 I# ALU|Add4~6_combout $end
$var wire 1 J# ALU|Mux1~12_combout $end
$var wire 1 K# ALU|Add9~7_combout $end
$var wire 1 L# ALU|Add8~5 $end
$var wire 1 M# ALU|Add8~6_combout $end
$var wire 1 N# ALU|Add7~5 $end
$var wire 1 O# ALU|Add7~6_combout $end
$var wire 1 P# ALU|Mux1~13_combout $end
$var wire 1 Q# ALU|Mux1~14_combout $end
$var wire 1 R# ALU|Add5~5 $end
$var wire 1 S# ALU|Add5~6_combout $end
$var wire 1 T# ALU|Add6~5 $end
$var wire 1 U# ALU|Add6~6_combout $end
$var wire 1 V# ALU|Mux1~10_combout $end
$var wire 1 W# ALU|Mux1~11_combout $end
$var wire 1 X# ALU|Mux1~15_combout $end
$var wire 1 Y# ALU|Mux1~20_combout $end
$var wire 1 Z# ALU|Mux1~21_combout $end
$var wire 1 [# ALU|Mux1~22_combout $end
$var wire 1 \# ALU|Mux1~23_combout $end
$var wire 1 ]# ALU|Mux1~24_combout $end
$var wire 1 ^# ALU|CN4~6_combout $end
$var wire 1 _# ALU|Add5~7 $end
$var wire 1 `# ALU|Add5~8_combout $end
$var wire 1 a# ALU|Add6~7 $end
$var wire 1 b# ALU|Add6~8_combout $end
$var wire 1 c# ALU|CN4~5_combout $end
$var wire 1 d# ALU|Mux0~2_combout $end
$var wire 1 e# ALU|Add12~7 $end
$var wire 1 f# ALU|Add12~8_combout $end
$var wire 1 g# ALU|Add13~7 $end
$var wire 1 h# ALU|Add13~8_combout $end
$var wire 1 i# ALU|CN4~4_combout $end
$var wire 1 j# ALU|Add17~7 $end
$var wire 1 k# ALU|Add17~8_combout $end
$var wire 1 l# ALU|Add18~7 $end
$var wire 1 m# ALU|Add18~8_combout $end
$var wire 1 n# ALU|CN4~7_combout $end
$var wire 1 o# ALU|Mux0~3_combout $end
$var wire 1 p# ALU|Add3~7 $end
$var wire 1 q# ALU|Add3~8_combout $end
$var wire 1 r# ALU|Add4~7 $end
$var wire 1 s# ALU|Add4~8_combout $end
$var wire 1 t# ALU|Mux0~4_combout $end
$var wire 1 u# ALU|Add10~7 $end
$var wire 1 v# ALU|Add10~8_combout $end
$var wire 1 w# ALU|Add11~7 $end
$var wire 1 x# ALU|Add11~8_combout $end
$var wire 1 y# ALU|Mux0~5_combout $end
$var wire 1 z# ALU|Mux0~6_combout $end
$var wire 1 {# ALU|Mux0~7_combout $end
$var wire 1 |# ALU|Mux0~8_combout $end
$var wire 1 }# ALU|Mux0~10_combout $end
$var wire 1 ~# ALU|Mux0~11_combout $end
$var wire 1 !$ ALU|CN4~8_combout $end
$var wire 1 "$ ALU|Mux0~12_combout $end
$var wire 1 #$ ALU|Mux0~9_combout $end
$var wire 1 $$ ALU|Mux0~13_combout $end
$var wire 1 %$ ALU|Add14~7 $end
$var wire 1 &$ ALU|Add14~8_combout $end
$var wire 1 '$ ALU|Add15~7 $end
$var wire 1 ($ ALU|Add15~8_combout $end
$var wire 1 )$ ALU|CN4~1_combout $end
$var wire 1 *$ ALU|Add2~8_combout $end
$var wire 1 +$ ALU|CN4~2_combout $end
$var wire 1 ,$ ALU|Mux0~0_combout $end
$var wire 1 -$ ALU|Add19~7 $end
$var wire 1 .$ ALU|Add19~8_combout $end
$var wire 1 /$ ALU|Add20~7 $end
$var wire 1 0$ ALU|Add20~8_combout $end
$var wire 1 1$ ALU|CN4~3_combout $end
$var wire 1 2$ ALU|Add8~7 $end
$var wire 1 3$ ALU|Add8~8_combout $end
$var wire 1 4$ ALU|Add7~7 $end
$var wire 1 5$ ALU|Add7~8_combout $end
$var wire 1 6$ ALU|CN4~0_combout $end
$var wire 1 7$ ALU|Mux0~1_combout $end
$var wire 1 8$ ALU|Mux0~14_combout $end
$var wire 1 9$ ALU|CN4~combout $end
$var wire 1 :$ LED|WideOr5~0_combout $end
$var wire 1 ;$ LED|WideOr4~0_combout $end
$var wire 1 <$ LED|segData~0_combout $end
$var wire 1 =$ LED|WideOr3~0_combout $end
$var wire 1 >$ LED|WideOr2~0_combout $end
$var wire 1 ?$ LED|WideOr1~0_combout $end
$var wire 1 @$ LED|WideOr0~0_combout $end
$upscope $end
$upscope $end
$enddefinitions $end
#0
$dumpvars
b101 !
b111 "
1#
0$
b1001 %
x&
x*
x)
x(
x'
02
11
10
1/
1.
1-
1,
1+
x:
x9
x8
x7
x6
x5
x4
03
x;
0<
1=
x>
1?
1@
1A
xB
xC
xD
xE
xF
xG
xH
xI
xJ
xK
xL
xM
0N
0O
1P
1Q
1R
1S
1T
1U
1V
1W
0X
1Y
xZ
x[
x\
1]
x^
x_
x`
1a
0b
xc
xd
xe
xf
xg
xh
xi
xj
xk
xl
xm
xn
xo
xp
xq
xr
xs
xt
xu
xv
xw
xx
xy
xz
1{
0|
x}
x~
x!!
x"!
x#!
x$!
x%!
x&!
x'!
x(!
x)!
x*!
x+!
x,!
x-!
x.!
x/!
x0!
x1!
x2!
x3!
x4!
x5!
x6!
x7!
x8!
x9!
x:!
x;!
0<!
1=!
x>!
x?!
x@!
xA!
xB!
xC!
xD!
xE!
xF!
xG!
xH!
xI!
xJ!
xK!
xL!
xM!
xN!
xO!
xP!
xQ!
xR!
xS!
xT!
xU!
xV!
xW!
xX!
xY!
xZ!
x[!
x\!
x]!
x^!
x_!
x`!
xa!
xb!
xc!
xd!
xe!
xf!
xg!
xh!
xi!
xj!
xk!
xl!
xm!
xn!
xo!
xp!
xq!
xr!
xs!
xt!
xu!
xv!
xw!
xx!
xy!
xz!
x{!
x|!
x}!
x~!
x!"
x""
x#"
x$"
x%"
x&"
x'"
x("
x)"
x*"
x+"
x,"
x-"
x."
x/"
10"
11"
x2"
x3"
x4"
x5"
x6"
x7"
x8"
x9"
x:"
x;"
x<"
x="
x>"
x?"
x@"
xA"
xB"
xC"
xD"
xE"
xF"
xG"
xH"
xI"
xJ"
xK"
xL"
xM"
xN"
xO"
xP"
xQ"
xR"
xS"
xT"
xU"
xV"
xW"
xX"
xY"
xZ"
x["
x\"
x]"
x^"
x_"
x`"
xa"
xb"
xc"
xd"
xe"
xf"
xg"
xh"
xi"
xj"
xk"
xl"
xm"
xn"
xo"
xp"
xq"
xr"
xs"
xt"
xu"
0v"
0w"
xx"
xy"
xz"
x{"
x|"
x}"
x~"
x!#
x"#
x##
x$#
x%#
x&#
x'#
x(#
x)#
x*#
x+#
x,#
x-#
x.#
x/#
x0#
x1#
x2#
x3#
x4#
x5#
x6#
x7#
x8#
x9#
x:#
x;#
x<#
x=#
x>#
x?#
x@#
xA#
xB#
xC#
xD#
xE#
xF#
xG#
xH#
xI#
xJ#
xK#
xL#
xM#
xN#
xO#
xP#
xQ#
xR#
xS#
xT#
xU#
xV#
xW#
xX#
xY#
xZ#
x[#
x\#
x]#
x^#
x_#
x`#
xa#
xb#
xc#
xd#
xe#
xf#
xg#
xh#
xi#
xj#
xk#
xl#
xm#
xn#
xo#
xp#
xq#
xr#
xs#
xt#
xu#
xv#
xw#
xx#
xy#
xz#
x{#
x|#
x}#
x~#
x!$
x"$
x#$
x$$
x%$
x&$
x'$
x($
x)$
x*$
x+$
x,$
x-$
x.$
x/$
x0$
x1$
x2$
x3$
x4$
x5$
x6$
x7$
x8$
x9$
x:$
x;$
x<$
x=$
x>$
x?$
x@$
$end
#3865
1+$
#3913
1}
#3955
0`!
#3963
1y
#4008
03!
#4023
0^#
#4054
0'#
#4148
0"#
#4177
1!$
#4191
0d#
#4192
0+!
#4196
0y!
#4220
0S"
#4234
0x"
#4248
14"
#4258
1y"
#4337
0Z
#4339
0i
#4351
02!
#4361
04!
#4408
0:!
#4419
1C!
1.!
#4424
0r!
#4446
0?!
#4466
0m!
#4467
03"
#4492
0\"
#4511
0z#
#4533
1I"
#4565
10#
#4585
0*!
#4610
08!
#4613
1t#
#4614
0l!
#4618
1`
#4663
0("
#4702
0j
#4740
0a!
#4777
0J"
#4786
0@!
#4788
05!
#4793
1J!
#4794
1z!
#4798
0d!
#4847
16!
#4895
0o
#4902
0V!
#4906
0G!
#4912
0A#
#4917
1c
#4942
12"
#4949
0%!
#4966
1Q!
#4970
1*$
#4975
0B"
0M"
1)"
#5024
1c!
#5025
1]"
1X!
#5080
0@#
#5092
0E!
#5093
1H!
#5108
1e#
#5112
1N!
#5131
0O!
#5143
1$!
#5152
09!
#5165
1^"
#5170
0K"
#5172
11#
#5173
1[!
#5175
1>!
#5177
1o!
#5231
1@"
#5238
02#
#5271
0."
#5278
0~
#5304
0L#
#5311
1g#
#5339
0/!
#5370
1\!
#5377
12$
#5379
1u#
#5401
1{!
#5441
0L"
#5445
0}!
#5472
0/#
#5473
05#
#5496
1k
#5567
07!
#5673
0T"
#5676
0[
#5685
0f#
#5709
0"!
#5728
0`"
#5737
1f!
#5740
1##
#5753
00!
#5766
0n!
#5770
1B#
#5806
1_"
#5811
0D!
#5824
1j#
#5838
1A"
#5911
1M#
#5916
0t
#5922
0,!
1N"
#5932
0;!
#5953
13#
#5956
0v#
#5984
13$
#5988
0&"
#6008
1A!
#6011
0h"
#6016
0^!
#6062
1l
#6067
1!!
#6089
1n"
#6090
1|!
#6106
0""
#6110
0D"
#6138
1p
#6162
0%#
#6179
1;"
#6183
1N#
#6185
0~!
#6218
1X"
#6235
1l#
#6252
0F#
1W!
1g"
#6256
04$
#6257
1-#
#6266
04#
#6275
0*"
#6280
1C"
#6281
0i#
#6347
1$#
0p!
#6372
1z"
1e!
#6384
0y#
#6389
1}#
#6392
1(#
#6401
0k#
#6412
1a"
#6431
0h!
#6451
0s!
#6455
1?#
#6477
0K#
#6482
1\
#6484
1&!
#6494
0?"
#6504
1U"
#6505
0h#
#6509
0#$
#6511
0v
#6514
0J#
16#
#6524
15"
#6548
0I!
#6577
0}"
#6580
1g!
#6584
1E"
#6597
0R#
#6615
1B!
#6631
0F!
#6641
0d
#6650
1/$
#6656
0L!
#6670
1_#
#6672
1{"
#6679
1Q"
#6691
0Y"
#6694
1)#
#6704
0Y#
1O#
#6706
0K!
#6707
1u
#6711
1P#
#6719
0W"
#6729
1Z"
#6734
0#"
#6740
1R!
#6741
1c"
#6745
0-$
#6767
0%$
#6786
1<"
#6790
17#
#6798
1p#
#6802
09#
#6803
0F"
#6829
0G#
#6842
0l"
#6843
1!"
#6863
15$
#6875
1w#
#6880
1r
#6897
0-!
#6901
0q
#6913
1C#
#6917
0]!
#6928
0q!
#6993
1$"
#7000
0n#
#7007
0Y!
#7058
1t!
#7063
1m
#7075
0O"
#7105
0S#
#7119
1&#
#7127
1!#
#7128
1Q#
#7129
1j!
#7131
16"
#7151
1b"
#7178
0^
#7218
0m#
#7227
1(!
#7247
0`#
0'!
#7249
0|"
#7250
1;#
#7256
0R"
#7271
0*#
#7296
0o#
#7318
0d"
#7339
1u!
#7341
0#!
#7343
1i!
#7347
1S!
#7352
1.$
#7368
1M!
#7374
1&$
#7375
0q#
#7397
18#
#7400
0T!
#7429
16$
#7449
1m"
#7452
0x#
#7455
1e
#7473
1e"
#7484
0w
#7497
0["
#7541
1%"
#7546
0+#
#7581
1i"
#7591
0_
#7619
1'$
#7633
1="
#7693
01!
#7706
0H#
#7715
1r#
#7717
1j"
#7725
0_!
#7769
07"
#7803
1w!
#7818
1<#
#7835
0v!
#7842
1T#
#7844
0P"
#7846
0c#
#7863
0f
#7866
0V#
#7874
19"
#7898
0x
#7906
1G"
#7968
1D#
#7990
0.#
#7992
1a#
#7993
0~#
#8058
0~"
#8060
0V"
#8085
0,#
#8121
0f"
#8129
1U!
#8144
10$
#8169
1:#
#8177
1($
#8211
1o"
#8234
1=#
#8235
1)!
#8240
1>"
#8244
1s
#8277
0g
#8283
0I#
#8292
0s#
#8296
0{#
#8328
0P!
#8346
08"
#8384
1E#
#8449
1U#
#8539
1)$
#8569
0b#
#8654
1k"
#8679
0z
#8692
0h
#8753
11$
#8754
1"$
#8796
0$$
1x!
#8800
1>#
#9110
0Z!
#9222
1:"
#9228
1,$
#9408
0W#
#9410
1p"
#9471
0n
#9534
1Z#
#9555
0|#
#9822
0X#
#9957
1H"
#10197
17$
#10343
08$
#10423
1'"
#10432
0b!
#10567
1q"
#10824
1[#
#11126
09$
#11136
1r"
#11219
0k!
#11241
1\#
#11807
1]#
#11952
1s"
#12156
0B
0*
#12503
0+"
#12706
1t"
#13084
0,"
#13461
1u"
#14074
0-"
#14854
0/"
#14904
0;$
#15134
0F
0&
#16605
1@$
#18080
1E
1'
#18129
1?$
#18135
1<$
#18147
0=$
#18152
0:$
#18156
0>$
#18323
1D
1(
#19260
1H
19
#20245
0C
0)
#20523
1M
14
#22074
0L
05
#22217
1K
16
#22520
0I
08
#22545
1G
1:
#24019
1J
17
